,Date,Unix,Ticker,Price,stock_p_change,SP500,sp500_p_change,Difference,DE Ratio,Trailing P/E,Price/Sales,Price/Book,Profit Margin,Operating Margin,Return on Assets,Return on Equity,Revenue Per Share,Market Cap,Enterprise Value,Forward P/E,PEG Ratio,Enterprise Value/Revenue,Enterprise Value/EBITDA,Revenue,Gross Profit,EBITDA,Net Income Avl to Common ,Diluted EPS,Earnings Growth,Revenue Growth,Total Cash,Total Cash Per Share,Total Debt,Current Ratio,Book Value Per Share,Cash Flow,Beta,Held by Insiders,Held by Institutions,Shares Short (as of,Short Ratio,Short % of Float,Shares Short (prior ,Status
0,N/A,N/A,a,N/A,N/A,N/A,N/A,N/A,39.69,32.16,3.21,3.10,9.93,13.08,3.61,9.25,12.13,12470000000.0,12470000000.0,17.62,1.83,3.09,15.97,3.09,2040000000.0,15.97,438000000.0,1.20,110.30,0.80,2000000000.0,6.03,1660000000.0,3.78,12.57,1300000000.0,1.20,0.39,85.20,5960000.0,1.38,1.99,5970000.0,N/A
1,N/A,N/A,aa,N/A,N/A,N/A,N/A,N/A,63.15,21.41,0.46,0.86,2.27,10.91,4.38,4.57,19.24,18170000000.0,18170000000.0,16.14,4.76,0.77,4.94,0.77,4770000000.0,4.94,466000000.0,0.38,70.50,10.70,1740000000.0,1.33,9280000000.0,1.67,9.57,2180000000.0,0.28,0.13,62.50,130870000.0,4.35,10.72,116060000.0,N/A
2,N/A,N/A,aapl,N/A,N/A,N/A,N/A,N/A,54.02,10.52,2.30,4.51,22.85,30.48,17.05,46.25,40.62,5.6306e+11,5.6306e+11,9.16,0.75,2.41,6.83,2.41,93630000000.0,6.83,53390000000.0,9.22,31.40,22.30,42000000000.0,7.53,64480000000.00001,1.11,21.40,81270000000.0,1.06,0.03,60.20,74240000.0,1.92,1.27,108370000.0,N/A
3,N/A,N/A,abbv,N/A,N/A,N/A,N/A,N/A,660.77,32.28,4.27,19.23,12.86,35.58,11.70,59.26,13.56,1.138e+11,1.138e+11,11.11,0.72,5.19,13.29,5.19,15530000000.0,13.29,2810000000.0,1.72,144.90,18.40,9310000000.0,5.70,32130000000.000004,2.03,2.98,4990000000.0,1.62,0.10,73.60,21090000.0,2.87,1.33,20230000.0,N/A
4,N/A,N/A,abt,N/A,N/A,N/A,N/A,N/A,39.38,13.54,3.01,2.94,22.17,15.98,4.88,11.51,13.70,62880000000.0,62880000000.0,17.16,1.85,3.06,13.33,3.06,11030000000.0,13.33,2520000000.0,3.00,7.80,1.40,6140000000.0,4.12,8359999999.999999,1.82,14.15,3380000000.0,1.39,0.21,70.50,16070000.0,2.91,1.09,16559999.999999998,N/A
5,N/A,N/A,ace,N/A,N/A,N/A,N/A,N/A,26.03,13.43,1.90,1.24,14.24,18.12,2.21,9.15,58.09,40380000000.0,40380000000.0,11.80,1.20,2.12,11.18,2.12,5930000000.0,11.18,2710000000.0,8.19,32.70,7.20,2850000000.0,8.78,7580000000.0,0.40,89.88,3970000000.0,1.13,10.74,83.60,23070000.0,10.62,7.10,22060000.0,N/A
6,N/A,N/A,acn,N/A,N/A,N/A,N/A,N/A,0.43,20.69,2.00,10.51,9.76,14.55,15.91,52.33,49.76,58610000000.0,58610000000.0,17.17,1.91,1.88,11.28,1.88,9810000000.0,11.28,3040000000.0,4.75,1.50,1.50,3080000000.0,4.90,27660000.0,1.25,9.43,3830000000.0,1.04,0.21,83.10,8850000.0,3.58,1.41,9160000.0,N/A
7,N/A,N/A,adi,N/A,N/A,N/A,N/A,N/A,17.86,22.72,4.58,3.10,20.29,30.94,9.54,14.18,10.99,13470000000.0,13470000000.0,13.73,1.52,3.92,10.48,3.92,2260000000.0,10.48,696880000.0,2.20,11.40,20.20,3030000000.0,9.71,906070000.0,3.66,16.26,907800000.0,1.15,0.75,88.30,6080000.0,1.81,1.96,7950000.0,N/A
8,N/A,N/A,adm,N/A,N/A,N/A,N/A,N/A,37.94,11.87,0.29,1.16,2.54,3.38,3.69,9.62,114.57,26170000000.0,26170000000.0,11.17,8.55,0.36,7.82,0.36,4770000000.0,7.82,1830000000.0,2.90,66.30,8.60,1140000000.0,1.91,6780000000.0,1.63,29.72,1640000000.0,1.26,2.23,77.00,8250000.0,1.42,1.34,9840000.0,N/A
9,N/A,N/A,adp,N/A,N/A,N/A,N/A,N/A,43.09,24.77,3.28,7.88,13.48,18.34,3.94,27.11,23.66,34820000000.0,34820000000.0,21.06,2.33,3.14,15.06,3.14,4510000000.0,15.06,1420000000.0,3.15,14.00,5.80,3210000000.0,6.96,2000000000.0,1.14,9.99,1620000000.0,0.86,0.14,78.10,4630000.0,3.24,1.00,4820000.0,N/A
10,N/A,N/A,adt,N/A,N/A,N/A,N/A,N/A,184.79,17.57,1.43,1.76,8.28,19.42,4.08,9.79,20.90,10300000000.0,10300000000.0,13.37,1.64,2.88,7.45,2.88,2000000000.0,7.45,296000000.0,1.72,1.20,1.80,78000000.0,0.47,5390000000.0,0.61,17.60,1600000000.0,1.35,0.22,122.20,38110000.0,23.95,26.58,37100000.0,N/A
11,N/A,N/A,aee,N/A,N/A,N/A,N/A,N/A,100.04,16.31,1.79,1.52,10.92,22.10,3.62,8.54,24.49,17840000000.0,17840000000.0,16.06,2.80,3.00,8.26,3.00,2470000000.0,8.26,595000000.0,2.67,17.10,9.80,72000000.0,0.30,7160000000.0,0.80,28.91,1880000000.0,0.44,0.25,66.40,3070000.0,1.42,1.27,3070000.0,N/A
12,N/A,N/A,aep,N/A,N/A,N/A,N/A,N/A,114.11,16.16,1.66,1.62,10.23,19.84,3.60,10.25,35.31,48570000000.0,48570000000.0,15.70,3.49,2.81,9.19,2.81,9300000000.0,9.19,1770000000.0,3.61,5.30,6.50,292000000.0,0.60,20210000000.0,0.64,36.06,4810000000.0,0.36,0.01,68.40,5280000.0,1.71,1.08,5700000.0,N/A
13,N/A,N/A,aes,N/A,N/A,N/A,N/A,N/A,320.35,10.84,0.39,1.70,3.80,16.99,4.39,14.45,22.55,24950000000.0,24950000000.0,8.23,5.72,1.59,6.47,1.59,3090000000.0,6.47,597000000.0,0.84,63.10,16.20,1890000000.0,2.81,20700000000.0,1.11,5.29,2080000000.0,1.30,0.26,96.80,12550000.0,2.22,1.79,13480000.0,N/A
14,N/A,N/A,aet,N/A,N/A,N/A,N/A,N/A,49.20,16.42,0.64,2.42,3.84,7.61,5.35,14.90,171.53,40670000000.0,40670000000.0,13.28,1.44,0.68,7.79,0.68,15090000000.0,7.79,2300000000.0,6.52,5.80,1.50,4510000000.0,12.92,7840000000.0,0.81,45.51,3050000000.0,0.44,0.35,90.40,12710000.0,3.52,3.92,11890000.0,N/A
15,N/A,N/A,afl,N/A,N/A,N/A,N/A,N/A,34.29,9.92,1.16,1.42,11.93,20.44,2.19,14.28,48.17,26600000000.0,26600000000.0,9.00,3.38,1.27,6.13,1.27,8360000000.0,6.13,2510000000.0,5.71,19.70,11.60,3520000000.0,8.25,5920000000.0,0.37,40.36,6740000000.0,1.14,2.41,67.40,6870000.0,2.90,1.63,7850000.0,N/A
16,N/A,N/A,aiv,N/A,N/A,N/A,N/A,N/A,214.60,29.13,6.58,4.33,22.98,26.76,2.61,14.41,6.22,10750000000.0,10750000000.0,16.47,2.12,11.32,19.52,11.32,603740000.0,19.52,205600000.0,1.35,82.90,0.20,45240000.0,0.29,3940000000.0,0.32,9.22,346480000.0,0.19,0.91,102.90,3610000.0,3.33,3.15,3350000.0,N/A
17,N/A,N/A,akam,N/A,N/A,N/A,N/A,N/A,20.07,26.43,3.98,2.78,15.32,22.35,7.49,11.13,12.07,8510000000.0,8510000000.0,18.08,1.53,3.95,12.25,3.95,1350000000.0,12.25,330090000.0,1.82,3.40,10.60,667850000.0,3.75,619360000.0,3.65,17.31,741900000.0,1.10,2.80,89.10,6300000.0,2.65,3.63,5690000.0,N/A
18,N/A,N/A,all,N/A,N/A,N/A,N/A,N/A,25.24,10.14,0.63,1.22,7.02,11.56,2.41,11.70,87.12,23790000000.0,23790000000.0,10.57,1.61,0.67,5.30,0.67,13130000000.0,5.30,2390000000.0,5.75,16.80,1.00,3940000000.0,10.18,5180000000.0,0.51,48.10,3360000000.0,1.20,0.27,77.60,3890000.0,1.62,0.96,3680000.0,N/A
19,N/A,N/A,amat,N/A,N/A,N/A,N/A,N/A,59.66,14.99,2.05,2.62,14.26,17.11,7.25,17.79,7.96,18870000000.0,18870000000.0,11.05,0.91,1.95,9.32,1.95,3950000000.0,9.32,1380000000.0,1.12,31.20,4.60,4960000000.0,4.32,4540000000.0,2.44,6.56,1160000000.0,1.87,0.21,87.10,21390000.0,1.63,1.75,24150000.0,N/A
20,N/A,N/A,amgn,N/A,N/A,N/A,N/A,N/A,113.57,17.99,5.38,4.13,29.98,39.13,7.36,24.14,28.21,1.1433e+11,1.1433e+11,14.15,1.47,5.33,11.04,5.33,15640000000.0,11.04,6430000000.0,8.38,49.80,13.80,31120000000.0,41.26,31760000000.0,5.42,37.05,9460000000.0,1.23,0.13,81.70,8350000.0,2.73,1.26,7990000.0,N/A
21,N/A,N/A,amp,N/A,N/A,N/A,N/A,N/A,139.95,10.91,1.39,2.23,13.38,27.34,1.42,19.39,65.99,22990000000.0,22990000000.0,9.13,0.79,1.89,6.43,1.89,10310000000.0,6.43,1630000000.0,8.70,5.50,7.20,5880000000.0,33.79,12340000000.0,2.31,43.59,2320000000.0,1.22,0.25,89.20,2430000.0,2.34,1.34,2310000.0,N/A
22,N/A,N/A,amt,N/A,N/A,N/A,N/A,N/A,254.74,70.53,8.94,6.13,13.94,35.69,4.26,11.63,11.01,56650000000.0,56650000000.0,16.95,1.51,12.49,20.12,12.49,3010000000.0,20.12,557560000.0,1.34,50.40,19.20,287400000.0,0.68,17030000000.000002,0.68,15.63,2110000000.0,0.83,0.11,97.00,5900000.0,3.20,1.41,7360000.0,N/A
23,N/A,N/A,an,N/A,N/A,N/A,N/A,N/A,238.81,12.12,0.26,2.41,2.25,4.32,6.67,21.64,181.39,10750000000.0,10750000000.0,10.43,0.83,0.52,10.65,0.52,2990000000.0,10.65,462800000.0,4.03,11.30,9.10,63900000.0,0.58,5410000000.0,0.95,20.41,507500000.0,1.19,27.31,69.30,3820000.0,5.30,5.26,3400000.0,N/A
24,N/A,N/A,anf,N/A,N/A,N/A,N/A,N/A,26.64,80.03,0.53,1.47,0.63,3.72,3.22,1.80,50.82,1650000000.0,1650000000.0,21.64,1.11,0.47,4.81,0.47,2310000000.0,4.81,22220000.0,0.32,129.80,3.60,405610000.0,6.04,337970000.0,1.88,18.84,349560000.0,0.80,1.71,126.10,22460000.0,4.48,36.99,23900000.0,N/A
25,N/A,N/A,aon,N/A,N/A,N/A,N/A,N/A,103.10,19.91,2.08,4.12,10.80,16.74,4.36,19.66,41.48,29290000000.0,29290000000.0,13.31,1.58,2.51,11.68,2.51,12040000000.0,11.68,1250000000.0,4.37,4.50,4.80,676000000.0,2.47,6130000000.0,1.03,21.48,1830000000.0,1.17,1.04,90.00,3320000.0,2.87,1.19,3380000.0,N/A
26,N/A,N/A,apd,N/A,N/A,N/A,N/A,N/A,79.66,20.24,2.60,3.55,12.92,19.18,6.74,17.35,46.04,31300000000.0,31300000000.0,14.59,1.13,3.16,11.04,3.16,2950000000.0,11.04,1280000000.0,5.88,231.20,8.50,224000000.0,1.04,5880000000.0,0.80,33.66,2440000000.0,1.34,0.15,88.70,3040000.0,1.96,1.41,4390000.0,N/A
27,N/A,N/A,aph,N/A,N/A,N/A,N/A,N/A,89.69,19.50,2.62,4.64,13.60,19.94,9.68,24.75,17.98,15630000000.0,15630000000.0,18.36,2.79,2.81,12.14,2.81,1690000000.0,12.14,756800000.0,2.39,12.20,7.40,1600000000.0,5.18,2850000000.0,3.57,10.20,981700000.0,0.80,0.36,101.40,4900000.0,4.77,1.88,5250000.0,N/A
28,N/A,N/A,arg,N/A,N/A,N/A,N/A,N/A,147.54,28.47,1.85,5.18,6.85,11.87,6.58,18.74,71.66,12700000000.0,12700000000.0,26.10,3.55,2.37,12.99,2.37,2950000000.0,12.99,367190000.0,4.84,0.30,1.20,58070000.0,0.81,2830000000.0,1.04,26.64,747780000.0,0.85,10.17,81.50,1070000.0,0.40,1.81,1500000.0,N/A
29,N/A,N/A,avb,N/A,N/A,N/A,N/A,N/A,64.09,32.83,13.39,2.54,39.05,38.66,2.76,7.71,14.11,30550000000.0,30550000000.0,21.75,3.11,16.36,25.63,16.36,1690000000.0,25.63,727140000.0,5.47,14.50,11.60,318560000.0,2.33,6310000000.0,0.95,71.81,1040000000.0,0.04,0.45,100.60,1650000.0,1.94,1.48,1630000.0,N/A
30,N/A,N/A,avy,N/A,N/A,N/A,N/A,N/A,99.84,19.03,0.88,5.12,4.77,8.70,7.61,24.68,67.15,6300000000.0,6300000000.0,16.13,1.84,1.03,9.11,1.03,1650000000.0,9.11,291500000.0,3.14,35.70,5.90,189200000.0,2.08,1050000000.0,1.30,11.56,464300000.0,1.15,0.47,91.30,4250000.0,5.95,4.71,4370000.0,N/A
31,N/A,N/A,ba,N/A,N/A,N/A,N/A,N/A,132.86,16.36,0.92,13.24,5.79,8.29,5.24,52.43,139.09,86290000000.0,86290000000.0,13.80,1.53,0.89,8.70,0.89,14010000000.0,8.70,5610000000.0,7.95,25.10,8.70,9820000000.0,14.66,9020000000.0,1.17,10.05,11240000000.0,1.05,0.06,74.60,19190000.0,5.81,3.32,18810000.0,N/A
32,N/A,N/A,bax,N/A,N/A,N/A,N/A,N/A,85.77,11.54,1.25,2.57,10.65,19.48,8.58,22.45,29.63,20410000000.0,20410000000.0,25.49,2.58,1.27,4.92,1.27,8160000000.0,4.92,1830000000.0,3.14,99.80,8.20,6130000000.0,11.20,6730000000.0,1.86,14.31,2070000000.0,0.80,10.11,84.90,10770000.0,2.74,1.98,13520000.0,N/A
33,N/A,N/A,bbby,N/A,N/A,N/A,N/A,N/A,58.46,9.23,0.63,2.97,7.15,12.05,12.77,29.85,71.61,8490000000.0,8490000000.0,8.97,1.79,0.71,4.99,0.71,4620000000.0,4.99,859010000.0,5.06,21.10,0.30,490740000.0,3.06,1500000000.0,1.91,15.68,1170000000.0,1.06,3.33,99.60,17180000.0,7.59,10.37,16680000.0,N/A
34,N/A,N/A,bby,N/A,N/A,N/A,N/A,N/A,35.25,10.90,0.26,2.24,2.34,3.87,6.27,18.52,114.80,8210000000.0,8210000000.0,10.19,1.11,0.21,3.70,0.21,9050000000.0,3.70,854000000.0,2.66,16.80,2.40,3350000000.0,9.77,1640000000.0,1.40,13.48,1620000000.0,1.58,13.81,89.20,26840000.0,4.02,10.28,27040000.0,N/A
35,N/A,N/A,bdx,N/A,N/A,N/A,N/A,N/A,178.98,42.50,2.96,4.25,6.76,17.56,5.75,11.38,50.77,41360000000.0,41360000000.0,15.27,1.26,4.02,15.72,4.02,4700000000.0,15.72,695000000.0,3.35,39.90,39.90,1460000000.0,6.94,12820000000.0,1.38,34.00,1730000000.0,1.11,0.28,85.60,5210000.0,5.09,2.47,5980000.0,N/A
36,N/A,N/A,ben,N/A,N/A,N/A,N/A,N/A,17.17,10.23,2.58,1.74,25.61,38.35,11.66,16.84,12.93,12600000000.0,12600000000.0,10.52,5.98,1.59,4.06,1.59,7910000000.0,4.06,2020000000.0,3.29,44.10,13.10,9800000000.0,16.29,2160000000.0,9.35,19.62,2250000000.0,1.74,37.70,50.10,14960000.0,4.50,3.57,13920000.0,N/A
37,N/A,N/A,biib,N/A,N/A,N/A,N/A,N/A,61.84,18.34,5.99,5.99,34.07,46.31,17.76,34.74,45.05,63240000000.0,63240000000.0,15.17,1.17,5.99,11.51,5.99,8530000000.0,11.51,3600000000.0,15.30,12.70,10.60,5840000000.0,26.21,6530000000.0,3.52,47.43,3610000000.0,0.36,0.10,91.20,2570000.0,1.56,1.09,2690000.0,N/A
38,N/A,N/A,blk,N/A,N/A,N/A,N/A,N/A,125.47,15.82,4.63,1.86,29.12,41.26,1.31,11.80,67.91,49750000000.0,49750000000.0,14.68,1.75,4.39,10.09,4.39,10850000000.0,10.09,3300000000.0,19.45,8.10,2.10,37100000000.0,223.41,35730000000.0,1.18,169.44,3110000000.0,1.85,2.67,88.30,2400000.0,3.23,1.91,2370000.0,N/A
39,N/A,N/A,bll,N/A,N/A,N/A,N/A,N/A,254.33,32.68,1.17,9.27,3.67,9.90,6.63,24.59,59.94,12430000000.0,12430000000.0,18.81,3.40,1.51,11.33,1.51,1670000000.0,11.33,301600000.0,2.13,69.80,6.30,244400000.0,1.79,3160000000.0,1.05,7.59,959500000.0,1.09,1.25,34.20,7970000.0,6.01,5.84,8359999.999999999,N/A
40,N/A,N/A,bms,N/A,N/A,N/A,N/A,N/A,104.56,18.03,1.02,3.40,5.83,10.19,7.06,17.07,42.48,5460000000.0,5460000000.0,16.19,2.13,1.32,9.57,1.32,859100000.0,9.57,242300000.0,2.45,267.60,7.30,78600000.0,0.82,1300000000.0,2.16,12.95,468600000.0,1.25,1.05,75.80,4550000.0,7.95,4.72,5370000.0,N/A
41,N/A,N/A,bmy,N/A,N/A,N/A,N/A,N/A,47.69,59.92,6.59,7.22,10.74,22.61,7.16,12.12,9.93,1.0802e+11,1.0802e+11,27.79,1.74,6.54,24.19,6.54,11950000000.0,24.19,1780000000.0,1.06,2.10,3.80,5410000000.0,3.25,7280000000.0,1.81,9.04,1790000000.0,1.04,0.11,73.50,23570000.0,4.47,1.42,23300000.0,N/A
42,N/A,N/A,brcm,N/A,N/A,N/A,N/A,N/A,15.96,23.63,3.91,3.32,16.67,19.80,8.25,15.19,14.09,31120000000.0,31120000000.0,18.24,2.79,3.67,15.67,3.67,4330000000.0,15.67,1410000000.0,2.29,337.80,3.20,3460000000.0,5.69,1590000000.0,3.60,16.40,1890000000.0,0.19,0.06,87.60,5190000.0,0.95,0.93,4920000.0,N/A
43,N/A,N/A,bwa,N/A,N/A,N/A,N/A,N/A,47.76,13.31,1.07,2.27,7.91,12.92,8.52,17.35,34.98,8980000000.0,8980000000.0,10.70,1.32,1.14,6.70,1.14,1760000000.0,6.70,624300000.0,2.75,5.50,7.30,1030000000.0,4.61,1810000000.0,2.14,16.58,725800000.0,1.26,0.43,96.60,10510000.0,5.80,4.66,9620000.0,N/A
44,N/A,N/A,bxp,N/A,N/A,N/A,N/A,N/A,123.13,30.68,7.67,3.40,24.77,34.77,2.87,11.10,16.32,27200000000.0,27200000000.0,21.27,3.48,10.87,18.04,10.87,1530000000.0,18.04,608980000.0,3.96,43.20,1.50,1390000000.0,9.03,9930000000.0,4.12,36.80,834750000.0,0.22,0.63,97.90,1630000.0,2.24,1.36,1770000.0,N/A
45,N/A,N/A,ca,N/A,N/A,N/A,N/A,N/A,31.50,15.33,2.83,2.01,18.53,28.54,6.56,12.97,9.37,10900000000.0,10900000000.0,10.62,4.00,2.66,8.48,2.66,3350000000.0,8.48,734000000.0,1.72,32.00,6.90,2460000000.0,5.60,1800000000.0,1.34,13.13,1010000000.0,0.79,28.65,69.10,12000000.0,3.83,3.79,15270000.0,N/A
46,N/A,N/A,cab,N/A,N/A,N/A,N/A,N/A,237.05,17.33,0.83,1.78,4.89,8.15,2.58,10.65,54.56,7430000000.0,7430000000.0,14.30,1.47,1.92,16.77,1.92,1590000000.0,16.77,189150000.0,2.64,18.80,4.60,38600000.0,0.56,4290000000.0,3.77,26.05,311800000.0,0.17,27.62,82.50,9360000.0,8.53,18.49,9700000.0,N/A
47,N/A,N/A,cah,N/A,N/A,N/A,N/A,N/A,83.50,21.02,0.26,4.30,1.25,2.22,5.19,20.62,322.78,30160000000.0,30160000000.0,13.98,1.19,0.28,10.61,0.28,5710000000.0,10.61,1330000000.0,3.99,44.00,16.60,2970000000.0,9.04,5550000000.0,1.19,19.77,2430000000.0,0.69,0.20,88.30,6490000.0,3.63,2.20,6670000.0,N/A
48,N/A,N/A,cam,N/A,N/A,N/A,N/A,N/A,53.84,18.38,1.22,2.62,6.62,13.49,6.49,4.60,49.32,12330000000.0,12330000000.0,23.97,2.26,1.30,7.52,1.30,2920000000.0,7.52,203000000.0,3.26,16.90,17.60,1950000000.0,10.20,2830000000.0,2.27,23.21,1150000000.0,0.09,0.74,93.00,3710000.0,1.80,1.95,3730000.0,N/A
49,N/A,N/A,camp,N/A,N/A,N/A,N/A,N/A,75.95,37.55,2.46,3.78,6.43,11.61,7.12,11.03,7.73,583040000.0,583040000.0,14.49,0.81,2.09,14.34,2.09,87400000.0,14.34,17950000.0,0.49,3.60,18.10,223340000.0,6.15,138100000.0,6.51,5.01,45060000.0,1.70,3.72,69.00,3610000.0,10.54,10.32,3480000.0,N/A
50,N/A,N/A,cat,N/A,N/A,N/A,N/A,N/A,235.14,13.04,0.74,2.34,5.87,9.50,3.65,16.98,83.68,69590000000.0,69590000000.0,17.78,10.29,1.39,8.88,1.39,14790000000.0,8.88,2950000000.0,4.86,63.80,19.10,4810000000.0,8.26,37550000000.0,1.37,27.30,6740000000.0,1.16,0.23,66.60,49110000.0,8.66,8.15,46130000.0,N/A
51,N/A,N/A,cb,N/A,N/A,N/A,N/A,N/A,20.16,14.82,2.11,1.80,14.53,21.34,3.61,12.34,59.97,29410000000.0,29410000000.0,16.54,2.94,2.11,9.71,2.11,7110000000.0,9.71,2030000000.0,8.68,1.20,0.10,3100000000.0,13.68,3300000000.0,0.85,72.10,2190000000.0,26.88,0.30,86.20,2990000.0,2.22,1.33,2880000.0,N/A
52,N/A,N/A,cbg,N/A,N/A,N/A,N/A,N/A,143.46,18.08,1.04,4.06,5.75,8.92,6.49,24.39,29.94,13430000000.0,13430000000.0,13.24,1.07,1.35,11.46,1.35,999700000.0,11.46,571370000.0,1.70,39.20,19.20,504240000.0,1.52,3710000000.0,1.10,7.65,735710000.0,1.38,1.23,95.20,4150000.0000000005,2.30,1.45,4200000.0,N/A
53,N/A,N/A,cce,N/A,N/A,N/A,N/A,N/A,397.72,20.05,1.46,10.59,7.56,13.02,6.87,40.34,31.19,14360000000.0,14360000000.0,17.34,15.13,1.97,11.68,1.97,2970000000.0,11.68,552000000.0,2.32,29.40,14.70,196000000.0,0.86,4000000000.0,0.94,4.44,1180000000.0,1.14,3.21,77.50,7910000.0,3.78,3.42,7790000.0,N/A
54,N/A,N/A,cci,N/A,N/A,N/A,N/A,N/A,167.69,18.67,7.39,3.88,40.26,27.85,3.09,7.99,11.40,39630000000.0,39630000000.0,17.79,1.93,10.44,18.89,10.44,2340000000.0,18.89,511800000.0,4.45,3.00,2.80,184120000.0,0.55,12140000000.0,1.24,21.74,1770000000.0,0.30,0.73,96.20,10160000.0,5.04,3.07,10040000.0,N/A
55,N/A,N/A,cern,N/A,N/A,N/A,N/A,N/A,16.43,39.69,4.81,5.14,12.70,20.36,10.53,14.41,11.95,20260000000.0,20260000000.0,24.89,1.69,4.94,17.88,4.94,2800000000.0,17.88,521130000.0,1.48,14.20,35.70,464540000.0,1.36,630670000.0,2.15,11.22,817880000.0,1.14,11.05,82.20,17840000.0,7.30,5.84,15410000.0,N/A
56,N/A,N/A,cf,N/A,N/A,N/A,N/A,N/A,125.18,8.89,1.80,1.94,20.68,33.10,7.44,20.36,18.47,12530000000.0,12530000000.0,8.19,1.05,2.84,6.59,2.84,1780000000.0,6.59,911700000.0,3.81,30.60,0.70,943200000.0,4.05,5590000000.0,1.39,17.64,1300000000.0,1.14,5.63,94.60,8860000.0,3.16,4.15,9340000.0,N/A
57,N/A,N/A,chrw,N/A,N/A,N/A,N/A,N/A,91.04,18.57,0.67,8.04,3.64,6.10,16.62,46.14,93.61,9950000000.0,9950000000.0,16.79,1.83,0.73,11.24,0.73,2010000000.0,11.24,496060000.0,3.40,11.60,1.40,143090000.0,1.00,1030000000.0,1.17,7.85,672550000.0,0.49,1.41,88.40,6450000.0,3.48,4.44,8109999.999999999,N/A
58,N/A,N/A,ci,N/A,N/A,N/A,N/A,N/A,43.91,16.98,0.98,3.09,5.73,9.82,4.06,18.35,145.13,38470000000.0,38470000000.0,14.87,1.49,1.03,9.64,1.03,13580000000.0,9.64,2140000000.0,8.17,2.40,7.20,2480000000.0,9.61,5200000000.0,0.99,45.73,2240000000.0,0.32,2.74,88.50,1830000.0,1.29,0.73,1850000.0,N/A
59,N/A,N/A,cinf,N/A,N/A,N/A,N/A,N/A,13.56,14.24,1.78,1.44,12.55,18.56,3.20,10.14,31.36,9470000000.0,9470000000.0,20.19,4.96,1.84,9.41,1.84,788000000.0,9.41,645000000.0,3.90,4.90,0.20,494000000.0,3.02,861000000.0,1.22,38.77,995000000.0,1.07,13.79,63.70,3130000.0,4.74,2.10,3130000.0,N/A
60,N/A,N/A,cl,N/A,N/A,N/A,N/A,N/A,150.85,23.16,3.46,221.87,15.10,24.69,18.53,225.60,18.06,61490000000.0,61490000000.0,21.06,3.37,3.76,13.74,3.76,10110000000.0,13.74,2470000000.0,2.70,33.90,8.70,1590000000.0,1.77,6790000000.0,1.29,0.28,3010000000.0,0.89,0.31,74.90,10650000.0,3.31,1.27,11140000.0,N/A
61,N/A,N/A,clx,N/A,N/A,N/A,N/A,N/A,871.43,25.25,2.85,135.97,11.63,18.39,15.87,440.28,43.70,18130000000.0,18130000000.0,24.27,3.53,3.19,15.17,3.19,2460000000.0,15.17,634000000.0,5.00,91.10,2.80,383000000.0,2.97,2230000000.0,1.04,0.92,778000000.0,0.50,0.18,75.80,6670000.0,7.64,5.19,6730000.0,N/A
62,N/A,N/A,cmcsa,N/A,N/A,N/A,N/A,N/A,89.82,17.15,1.84,2.59,11.12,22.00,6.31,15.49,29.05,1.8006e+11,1.8006e+11,15.10,1.25,2.47,7.34,2.47,47860000000.0,7.34,8120000000.0,3.19,23.00,11.20,2030000000.0,0.83,47760000000.0,0.66,21.05,18460000000.0,1.08,0.16,84.60,33570000.0,3.07,1.60,22270000.0,N/A
63,N/A,N/A,cme,N/A,N/A,N/A,N/A,N/A,10.48,23.06,8.83,1.38,37.62,60.05,1.74,5.88,9.99,29900000000.0,29900000000.0,20.15,1.82,8.91,13.33,8.91,2990000000.0,13.33,1260000000.0,3.74,24.10,11.50,1510000000.0,4.46,2240000000.0,1.04,63.48,1640000000.0,0.61,4.48,78.80,5460000.0,3.82,1.95,5470000.0,N/A
64,N/A,N/A,cmi,N/A,N/A,N/A,N/A,N/A,20.45,9.21,0.79,1.99,8.65,11.07,8.55,21.75,108.28,15120000000.0,15120000000.0,10.39,2.24,0.78,5.69,0.78,4860000000.0,5.69,1680000000.0,9.34,10.20,5.50,1720000000.0,9.76,1650000000.0,2.23,43.88,2010000000.0,1.23,0.21,84.70,9840000.0,2.89,5.87,10510000.0,N/A
65,N/A,N/A,cms,N/A,N/A,N/A,N/A,N/A,223.99,19.40,1.49,2.57,7.65,17.76,3.94,13.47,24.38,18970000000.0,18970000000.0,17.96,2.84,2.83,10.05,2.83,2090000000.0,10.05,513000000.0,1.86,57.40,3.90,150000000.0,0.54,8820000000.0,1.19,14.08,1900000000.0,0.28,0.91,90.00,8410000.0,3.68,3.08,8500000.0,N/A
66,N/A,N/A,coh,N/A,N/A,N/A,N/A,N/A,36.01,23.32,2.18,3.69,9.08,17.17,10.91,15.46,15.14,8480000000.0,8480000000.0,15.07,1.98,2.03,9.21,2.03,2910000000.0,9.21,379700000.0,1.37,19.10,0.80,1280000000.0,4.60,890600000.0,3.13,8.91,806500000.0,0.67,0.12,93.60,16379999.999999998,3.46,5.91,18410000.0,N/A
67,N/A,N/A,col,N/A,N/A,N/A,N/A,N/A,113.19,16.98,2.24,6.28,13.08,19.22,8.72,36.83,39.64,13330000000.0,13330000000.0,14.76,1.76,2.54,11.12,2.54,1610000000.0,11.12,694000000.0,5.13,10.20,1.30,252000000.0,1.92,2130000000.0,1.51,14.22,735000000.0,0.61,0.45,0.20,5370000.0,7.44,4.10,4900000.0,N/A
68,N/A,N/A,cost,N/A,N/A,N/A,N/A,N/A,55.29,28.49,0.58,6.28,2.03,3.11,6.46,20.22,265.29,66740000000.0,66740000000.0,24.45,3.38,0.57,14.01,0.57,15130000000.0,14.01,2360000000.0,5.34,3.20,1.30,6280000000.0,14.29,6130000000.0,1.03,24.67,3970000000.0,0.79,0.79,73.50,6680000.0,2.46,1.53,5670000.0,N/A
69,N/A,N/A,cpb,N/A,N/A,N/A,N/A,N/A,291.63,24.97,1.96,11.14,7.93,14.67,8.87,42.24,25.82,19690000000.0,19690000000.0,17.38,3.78,2.45,13.31,2.45,2800000000.0,13.31,637000000.0,2.05,21.80,2.30,263000000.0,0.85,4110000000.0000005,0.81,4.56,1210000000.0,0.58,39.34,43.80,6420000.0,2.69,3.47,7840000.0,N/A
70,N/A,N/A,csco,N/A,N/A,N/A,N/A,N/A,41.05,13.18,2.60,2.15,19.32,23.53,6.76,16.42,9.73,91300000000.0,91300000000.0,10.33,1.16,1.84,6.68,1.84,29680000000.0,6.68,9580000000.0,1.88,32.90,3.60,59110000000.0,11.64,24620000000.0,3.35,11.80,12830000000.0,1.06,0.11,77.00,38860000.0,1.43,0.76,43130000.0,N/A
71,N/A,N/A,csx,N/A,N/A,N/A,N/A,N/A,86.67,11.68,1.88,1.98,16.31,30.28,6.94,17.48,12.37,32030000000.0,32030000000.0,11.57,2.17,2.62,6.55,2.62,8570000000.0,6.55,1990000000.0,2.01,0.40,8.80,966000000.0,0.99,10110000000.0,1.30,11.94,3550000000.0,1.23,0.35,71.10,10830000.0,1.02,1.09,10990000.0,N/A
72,N/A,N/A,ctas,N/A,N/A,N/A,N/A,N/A,67.55,15.06,2.01,4.88,13.82,15.79,10.07,20.36,41.62,9780000000.0,9780000000.0,19.32,1.77,2.09,10.92,2.09,1920000000.0,10.92,414550000.0,5.62,186.60,8.50,672610000.0,6.22,1300000000.0,1.81,17.80,552740000.0,0.71,18.18,71.80,4700000.0,7.64,5.06,4910000.0,N/A
73,N/A,N/A,ctl,N/A,N/A,N/A,N/A,N/A,143.26,18.44,0.74,0.94,4.08,14.25,3.20,4.74,31.89,33220000000.0,33220000000.0,10.16,6.08,1.86,4.99,1.86,10180000000.0,4.99,728000000.0,1.30,9.00,0.90,355000000.0,0.65,20410000000.0,0.60,25.72,5210000000.0,1.18,0.48,76.50,35230000.0,7.31,7.04,33220000.0,N/A
74,N/A,N/A,ctsh,N/A,N/A,N/A,N/A,N/A,10.76,21.87,2.89,3.90,13.11,17.34,12.03,19.29,19.57,30810000000.0,30810000000.0,16.02,1.15,2.58,12.98,2.58,4120000000.0,12.98,1560000000.0,2.55,11.70,23.50,4050000000.0,6.66,950000000.0,3.40,14.52,1790000000.0,1.15,0.45,91.60,8210000.000000001,2.17,1.35,6920000.0,N/A
75,N/A,N/A,ctxs,N/A,N/A,N/A,N/A,N/A,63.17,39.93,3.39,5.35,8.79,16.94,6.41,13.55,20.05,10960000000.0,10960000000.0,15.59,1.14,3.40,13.78,3.40,2520000000.0,13.78,283320000.0,1.75,17.70,7.20,1070000000.0,6.97,1320000000.0,1.12,13.27,943240000.0,1.33,6.57,95.60,7840000.0,3.56,4.89,6720000.0,N/A
76,N/A,N/A,cvs,N/A,N/A,N/A,N/A,N/A,73.22,21.11,0.70,2.81,3.39,6.16,6.92,13.42,132.36,1.2826e+11,1.2826e+11,16.05,1.27,0.86,11.47,0.86,25370000000.0,11.47,5030000000.0,4.43,31.40,10.30,3010000000.0,2.71,27220000000.0,1.44,33.49,8260000000.0,1.06,0.23,85.10,18730000.0,3.42,1.65,14020000.0,N/A
77,N/A,N/A,cvx,N/A,N/A,N/A,N/A,N/A,23.01,17.83,1.15,1.01,6.34,0.83,0.26,5.58,72.97,1.7721e+11,1.7721e+11,25.67,1.80,1.30,8.19,1.30,55540000000.0,8.19,8650000000.0,4.61,63.60,37.70,13240000000.0,7.03,35880000000.0,1.32,82.31,21400000000.0,1.25,0.04,62.60,26550000.0,2.53,1.41,22280000.0,N/A
78,N/A,N/A,d,N/A,N/A,N/A,N/A,N/A,207.46,23.07,3.38,3.24,14.79,30.30,4.20,14.54,20.47,68680000000.0,68680000000.0,18.06,3.46,5.69,12.97,5.69,4560000000.0,12.97,1780000000.0,3.01,12.10,2.60,249000000.0,0.42,27540000000.0,0.61,21.15,4480000000.0,0.34,0.39,61.30,12290000.0,5.33,2.10,13540000.0,N/A
79,N/A,N/A,dal,N/A,N/A,N/A,N/A,N/A,85.10,13.42,0.91,3.58,6.94,14.97,7.24,25.03,50.54,41720000000.0,41720000000.0,7.26,0.37,1.02,5.34,1.02,17400000000.0,5.34,2830000000.0,3.47,268.30,0.60,3820000000.0,4.84,8800000000.0,0.68,13.13,7030000000.0,1.27,0.28,89.50,15060000.0,1.58,1.85,15620000.0,N/A
80,N/A,N/A,dd,N/A,N/A,N/A,N/A,N/A,88.54,19.33,1.68,5.00,8.98,12.38,5.64,23.37,35.69,60050000000.0,60050000000.0,19.12,10.71,1.87,10.87,1.87,13020000000.0,10.87,3160000000.0,3.17,45.70,17.50,3730000000.0,4.26,9940000000.0,2.04,12.29,3670000000.0,1.77,0.14,68.70,13540000.0,1.77,1.50,14840000.0,N/A
81,N/A,N/A,dds,N/A,N/A,N/A,N/A,N/A,52.37,7.80,0.35,1.31,4.63,7.84,7.64,17.00,169.57,3100000000.0,3100000000.0,8.30,1.90,0.46,3.94,0.46,2510000000.0,3.94,315760000.0,7.85,17.20,1.80,100110000.0,2.73,951550000.0,1.62,49.49,484980000.0,1.52,11.73,94.10,4270000.0,5.21,17.89,4150000.0000000005,N/A
82,N/A,N/A,de,N/A,N/A,N/A,N/A,N/A,546.19,12.78,0.82,3.52,6.73,9.21,2.78,24.53,86.39,56940000000.0,56940000000.0,16.73,1.28,1.98,14.47,1.98,8720000000.0,14.47,1940000000.0,5.77,45.90,25.10,3330000000.0,10.50,36910000000.0,2.09,21.29,3740000000.0,0.98,9.36,74.10,37470000.0,9.04,10.96,36800000.0,N/A
83,N/A,N/A,dg,N/A,N/A,N/A,N/A,N/A,58.14,18.67,1.04,3.91,5.72,9.53,10.76,21.41,67.18,23710000000.0,23710000000.0,15.92,1.30,1.18,10.50,1.18,5800000000.0,10.50,1140000000.0,3.83,7.20,7.30,182510000.0,0.63,3110000000.0,1.75,18.37,1250000000.0,0.79,5.30,91.90,7620000.0,1.74,2.51,5970000.0,N/A
84,N/A,N/A,dgx,N/A,N/A,N/A,N/A,N/A,79.55,13.81,1.29,2.13,9.45,15.68,7.42,16.81,51.91,13270000000.0,13270000000.0,13.27,1.54,1.76,8.91,1.76,2800000000.0,8.91,703000000.0,4.88,165.10,1.30,123000000.0,0.86,3730000000.0,1.46,31.87,842000000.0,0.41,0.34,96.90,7370000.0,7.32,5.72,7840000.0,N/A
85,N/A,N/A,dhi,N/A,N/A,N/A,N/A,N/A,64.65,13.46,0.97,1.78,6.94,10.86,6.88,13.63,29.55,12530000000.0,12530000000.0,10.31,0.65,1.16,10.19,1.16,2290000000.0,10.19,750700000.0,2.03,43.70,28.30,1360000000.0,3.68,3810000000.0,5.31,15.99,700400000.0,1.01,9.63,85.30,33970000.0,8.80,10.15,33060000.000000004,N/A
86,N/A,N/A,dhr,N/A,N/A,N/A,N/A,N/A,64.75,18.95,2.93,2.62,16.12,17.69,5.36,10.93,29.41,73830000000.0,73830000000.0,18.06,1.90,3.57,15.82,3.57,10440000000.0,15.82,2570000000.0,4.67,106.20,6.70,1830000000.0,2.68,15010000000.0,1.03,33.73,3810000000.0,1.06,12.81,84.30,9460000.0,3.54,1.74,10680000.0,N/A
87,N/A,N/A,dis,N/A,N/A,N/A,N/A,N/A,35.63,20.26,3.14,3.71,15.98,25.33,9.64,18.28,30.97,1.7714e+11,1.7714e+11,15.96,1.39,3.38,11.32,3.38,24100000000.0,11.32,8380000000.0,4.90,7.30,9.10,4270000000.0,2.58,17340000000.0,1.03,26.81,10910000000.0,1.52,7.82,63.30,58390000.0,6.46,3.45,58150000.0,N/A
88,N/A,N/A,disca,N/A,N/A,N/A,N/A,N/A,119.90,16.08,1.78,2.92,16.58,33.55,8.34,16.84,12.35,18310000000.0,18310000000.0,13.41,2.02,2.85,7.37,2.85,4140000000.0,7.37,1060000000.0,1.62,0.40,0.70,406000000.0,0.91,7060000000.0,1.29,8.73,1080000000.0,1.82,1.57,115.20,17660000.0,5.65,12.04,20100000.0,N/A
89,N/A,N/A,dks,N/A,N/A,N/A,N/A,N/A,20.22,11.42,0.57,2.35,4.96,8.15,9.49,21.07,61.72,4240000000.0,4240000000.0,10.55,1.02,0.59,5.50,0.59,2090000000.0,5.50,356930000.0,3.02,4.10,7.60,73800000.0,0.64,348450000.0,1.64,15.22,619090000.0,0.63,1.63,91.00,6970000.0,1.73,7.59,7710000.0,N/A
90,N/A,N/A,dlph,N/A,N/A,N/A,N/A,N/A,112.55,13.34,1.27,9.09,9.66,12.29,11.74,47.42,57.42,23300000000.0,23300000000.0,11.72,1.10,1.40,8.93,1.40,3170000000.0,8.93,1380000000.0,5.51,32.50,3.50,434000000.0,1.55,3120000000.0,1.25,8.25,1880000000.0,0.99,0.48,96.60,5030000.0,2.42,1.73,5500000.0,N/A
91,N/A,N/A,dltr,N/A,N/A,N/A,N/A,N/A,201.43,64.83,1.46,4.45,2.06,8.99,7.06,9.08,58.58,25500000000.0,25500000000.0,20.58,2.00,2.02,17.00,2.02,3030000000.0,17.00,259900000.0,1.20,38.40,136.00,1110000000.0,4.73,8340000000.0,2.14,17.64,487800000.0,0.58,3.53,87.40,13370000.0,3.61,6.75,13970000.0,N/A
92,N/A,N/A,dlx,N/A,N/A,N/A,N/A,N/A,72.40,12.00,1.44,3.52,12.34,20.39,13.32,32.76,35.44,3000000000.0,3000000000.0,10.74,1.42,1.71,7.59,1.71,1070000000.0,7.59,215500000.0,4.31,28.10,6.40,64570000.0,1.31,521330000.00000006,0.51,14.63,294950000.0,1.52,1.23,91.00,5360000.0,17.28,12.31,5050000.0,N/A
93,N/A,N/A,do,N/A,N/A,N/A,N/A,N/A,56.85,35.94,1.01,0.58,2.81,23.30,4.56,1.58,18.16,4850000000.0,4850000000.0,26.96,0.24,1.95,4.44,1.95,2740000000.0,4.44,69940000.0,0.51,159.10,17.70,154750000.0,1.13,2490000000.0,0.95,31.91,776670000.0,1.07,53.34,48.20,13260000.0,5.94,20.64,12890000.0,N/A
94,N/A,N/A,dov,N/A,N/A,N/A,N/A,N/A,75.32,10.41,1.25,2.53,12.39,14.70,7.63,16.86,45.24,10990000000.0,10990000000.0,15.02,3.31,1.52,7.96,1.52,2970000000.0,7.96,631140000.0,5.56,19.70,11.00,662670000.0,4.28,2690000000.0,1.69,23.01,965540000.0,1.31,0.86,92.40,7530000.0,5.11,4.77,7250000.0,N/A
95,N/A,N/A,dow,N/A,N/A,N/A,N/A,N/A,78.14,11.89,1.05,2.66,9.46,11.80,5.47,19.13,45.33,66000000000.0,66000000000.0,13.15,1.79,1.28,7.64,1.28,10700000000.0,7.64,4520000000.0,3.89,46.70,16.40,7360000000.0,6.36,19750000000.0,1.88,17.55,7930000000.0,1.08,0.02,70.00,30000000.0,2.13,2.61,16790000.0,N/A
96,N/A,N/A,dps,N/A,N/A,N/A,N/A,N/A,120.53,24.55,2.82,8.03,11.67,19.70,9.33,31.97,32.49,19900000000.0,19900000000.0,21.35,3.23,3.19,13.80,3.19,3630000000.0,13.80,729000000.0,3.77,7.40,3.00,216000000.0,1.14,2650000000.0,0.77,11.62,976000000.0,0.76,0.30,94.60,6980000.0,5.82,3.64,7420000.0,N/A
97,N/A,N/A,dte,N/A,N/A,N/A,N/A,N/A,107.65,14.83,1.29,1.60,8.66,15.14,3.76,11.09,61.22,23510000000.0,23510000000.0,15.80,3.26,2.15,9.23,2.15,3080000000.0,9.23,945000000.0,5.29,69.90,0.10,67000000.0,0.37,9510000000.0,1.19,49.10,2010000000.0,0.31,0.46,65.10,1890000.0,1.68,1.06,1970000.0,N/A
98,N/A,N/A,duk,N/A,N/A,N/A,N/A,N/A,107.07,20.45,2.10,1.23,10.45,23.34,2.83,5.95,33.35,90210000000.0,90210000000.0,15.15,4.74,3.87,10.04,3.87,9600000000.0,10.04,2400000000.0,3.47,26.80,1.30,1380000000.0,2.00,42690000000.0,0.97,57.90,6820000000.0,0.29,0.07,56.10,8980000.0,2.57,1.27,8660000.0,N/A
99,N/A,N/A,dva,N/A,N/A,N/A,N/A,N/A,151.04,30.48,1.05,2.86,3.57,13.69,6.28,10.72,63.71,21510000000.0,21510000000.0,16.59,1.45,1.59,8.65,1.59,3680000000.0,8.65,483750000.0,2.22,17.20,8.50,1970000000.0,9.34,9200000000.0,1.97,23.65,1050000000.0,0.69,1.49,85.70,2870000.0,2.00,1.66,3140000.0,N/A
100,N/A,N/A,ebay,N/A,N/A,N/A,N/A,N/A,114.59,14.00,1.74,4.76,12.83,19.21,6.77,23.30,14.54,33050000000.0,33050000000.0,13.07,1.83,1.87,6.76,1.87,12170000000.0,6.76,3060000000.0,1.84,19.90,2.40,5300000000.0,4.42,7440000000.0,1.87,5.40,4630000000.0,1.12,7.31,82.90,24680000.0,2.60,2.22,25010000.0,N/A
101,N/A,N/A,ecl,N/A,N/A,N/A,N/A,N/A,98.83,27.96,2.25,4.58,8.17,14.88,6.66,15.57,46.45,37390000000.0,37390000000.0,21.56,1.96,2.71,12.80,2.71,6600000000.0,12.80,1130000000.0,3.73,29.40,6.70,184800000.0,0.63,6760000000.0,1.31,22.97,2070000000.0,1.04,9.89,79.20,5820000.0,5.01,2.21,6810000.0,N/A
102,N/A,N/A,ed,N/A,N/A,N/A,N/A,N/A,103.01,17.81,1.52,1.48,8.67,17.97,3.33,8.53,43.27,32830000000.0,32830000000.0,16.32,5.62,2.59,9.68,2.59,5110000000.0,9.68,1100000000.0,3.73,1.80,1.60,91000000.0,0.31,13440000000.0,0.79,44.49,3280000000.0,0.13,0.17,54.50,14430000.0,7.69,4.93,13000000.0,N/A
103,N/A,N/A,efx,N/A,N/A,N/A,N/A,N/A,58.77,29.89,4.76,5.59,15.84,27.11,9.61,18.14,22.03,13340000000.0,13340000000.0,20.70,2.06,5.09,14.62,5.09,1590000000.0,14.62,415200000.0,3.42,27.20,8.80,108500000.0,0.92,1330000000.0,0.84,18.83,739600000.0,0.94,0.81,89.00,2640000.0,4.83,2.49,2520000.0,N/A
104,N/A,N/A,eix,N/A,N/A,N/A,N/A,N/A,91.01,12.63,1.54,1.64,12.35,18.74,2.86,10.79,37.72,32180000000.0,32180000000.0,15.50,30.24,2.62,7.95,2.62,4670000000.0,7.95,1440000000.0,4.61,12.30,13.60,134000000.0,0.41,12410000000.0,0.72,35.60,4050000000.0,0.31,0.21,83.30,3840000.0,1.76,1.18,4860000.0,N/A
105,N/A,N/A,el,N/A,N/A,N/A,N/A,N/A,59.00,27.15,2.80,8.85,10.65,15.40,13.14,32.21,29.14,31560000000.0,31560000000.0,22.88,2.09,2.87,15.04,2.87,8680000000.0,15.04,1170000000.0,3.05,35.60,7.70,1090000000.0,2.95,2069999999.9999998,1.79,9.42,1820000000.0,0.83,1.45,95.10,9180000.0,4.70,4.69,9060000.0,N/A
106,N/A,N/A,emc,N/A,N/A,N/A,N/A,N/A,33.91,20.56,1.95,2.36,9.56,15.24,5.21,11.04,12.61,47250000000.0,47250000000.0,12.48,1.38,1.91,9.08,1.91,15250000000.0,9.08,2360000000.0,1.19,18.20,0.80,7640000000.0,3.94,7440000000.0,1.12,10.54,5750000000.0,1.03,0.46,84.00,11860000.0,1.07,0.60,10300000.0,N/A
107,N/A,N/A,emn,N/A,N/A,N/A,N/A,N/A,184.88,12.89,0.98,2.48,7.57,17.77,7.75,18.80,65.76,16470000000.0,16470000000.0,8.38,1.28,1.69,7.22,1.69,2220000000.0,7.22,740000000.0,4.94,21.90,1.40,309000000.0,2.08,7310000000.0,1.77,26.09,1510000000.0,1.43,0.68,85.50,2810000.0,2.38,1.90,2360000.0,N/A
108,N/A,N/A,emr,N/A,N/A,N/A,N/A,N/A,84.18,11.05,1.31,3.61,12.15,15.89,9.57,29.88,33.13,32550000000.0,32550000000.0,13.12,2.58,1.46,7.64,1.46,9050000000.0,7.64,2710000000.0,3.99,58.00,14.60,3150000000.0,4.82,6840000000.0,1.29,12.35,2530000000.0,1.17,0.62,72.90,25370000.0,5.45,3.92,25130000.0,N/A
109,N/A,N/A,eqr,N/A,N/A,N/A,N/A,N/A,96.23,32.80,10.83,2.81,32.64,35.93,2.64,8.23,7.46,39680000000.0,39680000000.0,24.25,5.47,14.66,22.62,14.66,1730000000.0,22.62,876560000.0,2.40,11.30,4.90,47120000.0,0.13,10800000000.0,0.31,28.67,1370000000.0,0.10,1.74,98.10,3280000.0,2.14,1.01,3760000.0,N/A
110,N/A,N/A,esrx,N/A,N/A,N/A,N/A,N/A,94.81,26.68,0.57,3.51,2.24,4.76,5.75,12.58,145.08,73230000000.0,73230000000.0,13.90,1.17,0.72,10.57,0.72,7930000000.0,10.57,2280000000.0,3.21,13.60,2.20,438200000.0,0.65,15690000000.0,0.64,24.46,4900000000.0,0.69,0.25,98.10,31430000.0,7.59,4.33,37680000.0,N/A
111,N/A,N/A,etn,N/A,N/A,N/A,N/A,N/A,56.26,11.37,1.08,1.50,9.49,11.53,4.64,12.68,45.69,30860000000.0,30860000000.0,11.46,2.23,1.45,9.09,1.45,6910000000.0,9.09,2030000000.0,4.33,25.90,9.20,568000000.0,1.23,8670000000.0,1.49,33.20,2570000000.0,1.51,0.30,76.50,6520000.0,1.77,1.40,7670000.0,N/A
112,N/A,N/A,ew,N/A,N/A,N/A,N/A,N/A,24.98,36.00,6.86,6.90,18.99,25.39,10.72,20.76,11.34,15760000000.0,15760000000.0,31.68,2.10,6.46,22.86,6.46,1700000000.0,22.86,463400000.0,2.11,24.80,1.30,1250000000.0,5.80,604900000.0,4.03,11.24,539100000.0,0.53,0.78,86.90,2250000.0,1.26,1.05,2960000.0,N/A
113,N/A,N/A,expe,N/A,N/A,N/A,N/A,N/A,80.54,17.48,2.36,6.11,13.32,7.45,2.70,28.30,49.25,15450000000.0,15450000000.0,18.32,1.38,2.44,21.99,2.44,4580000000.0,21.99,842970000.0,6.37,10.20,13.20,1490000000.0,11.48,2480000000.0,0.53,18.81,1340000000.0,0.95,14.45,90.50,14940000.0,5.61,15.14,13620000.0,N/A
114,N/A,N/A,expr,N/A,N/A,N/A,N/A,N/A,11.53,13.34,0.64,2.43,4.42,8.51,9.93,18.28,27.38,1340000000.0,1340000000.0,10.33,1.14,0.58,4.96,0.58,660950000.0,4.96,102190000.0,1.21,80.40,9.80,91210000.0,1.08,69900000.0,1.60,7.20,214200000.0,1.18,12.83,90.70,8480000.0,3.17,10.42,8530000.0,N/A
115,N/A,N/A,f,N/A,N/A,N/A,N/A,N/A,458.43,10.49,0.35,1.83,3.29,4.09,1.73,17.64,36.74,1.5401e+11,1.5401e+11,6.50,0.44,1.06,11.62,1.06,17860000000.0,11.62,4770000000.0,1.20,128.60,9.20,22180000000.0,5.59,126420000000.0,1.79,6.92,16250000000.0,1.18,0.31,60.00,82450000.0,3.43,2.35,71120000.0,N/A
116,N/A,N/A,fast,N/A,N/A,N/A,N/A,N/A,17.66,21.81,2.92,6.34,13.50,21.63,21.51,28.38,13.21,11440000000.0,11440000000.0,20.86,2.02,2.96,12.47,2.96,1900000000.0,12.47,522850000.0,1.78,2.40,1.50,111780000.0,0.39,315000000.0,4.54,6.16,568430000.0,1.06,4.71,87.80,40980000.0,19.61,13.96,41510000.0,N/A
117,N/A,N/A,fb,N/A,N/A,N/A,N/A,N/A,0.30,97.72,17.37,6.65,17.74,30.24,8.53,9.03,5.72,2.5954e+11,2.5954e+11,34.03,1.47,16.28,39.00,16.28,10310000000.0,39.00,2810000000.0,1.00,11.20,40.50,15830000000.0,5.60,126000000.0,10.68,14.72,7360000000.0,0.93,4.04,68.60,27450000.0,1.22,1.27,26660000.0,N/A
118,N/A,N/A,fdx,N/A,N/A,N/A,N/A,N/A,56.67,34.54,0.76,2.47,2.30,9.60,8.16,7.31,172.51,41980000000.0,41980000000.0,11.22,0.99,0.86,5.77,0.86,30470000000.0,5.77,1120000000.0,3.90,4.20,4.30,3650000000.0,13.23,8500000000.0,1.87,54.39,5670000000.0,1.22,7.19,76.90,2.35,2.35,1.64,4310000.0,N/A
119,N/A,N/A,fe,N/A,N/A,N/A,N/A,N/A,175.59,26.86,0.90,1.04,3.42,12.03,2.11,3.93,34.46,35450000000.0,35450000000.0,11.08,12.72,2.44,10.99,2.44,8050000000.0,10.99,498000000.0,1.18,18.60,6.10,86000000.0,0.20,22170000000.0,0.65,29.85,3290000000.0,0.26,16.18,61.30,7370000.0,1.57,1.95,6840000.0,N/A
120,N/A,N/A,fis,N/A,N/A,N/A,N/A,N/A,75.26,23.05,2.61,2.56,11.26,20.55,5.80,11.47,22.75,20930000000.0,20930000000.0,15.10,1.34,3.27,12.61,3.27,2080000000.0,12.61,735700000.0,2.52,16.40,1.70,441500000.0,1.57,4970000000.0,1.56,23.14,1180000000.0,0.79,1.01,84.50,1830000.0,0.72,0.65,2350000.0,N/A
121,N/A,N/A,fisv,N/A,N/A,N/A,N/A,N/A,147.61,29.98,3.88,7.06,13.53,24.97,8.63,22.24,21.88,23930000000.0,23930000000.0,20.21,1.78,4.60,14.92,4.60,2180000000.0,14.92,704000000.0,2.92,8.80,4.00,309000000.0,1.35,4240000000.0,1.09,12.50,1300000000.0,0.83,0.30,91.60,3520000.0,2.83,1.73,3930000.0,N/A
122,N/A,N/A,fl,N/A,N/A,N/A,N/A,N/A,5.14,16.84,1.21,3.51,7.23,12.49,15.62,20.55,52.17,7860000000.0,7860000000.0,13.17,1.12,1.07,7.44,1.07,2370000000.0,7.44,529000000.0,3.72,33.30,3.60,878000000.0,6.40,131000000.0,3.77,18.38,687000000.0,0.67,1.12,99.80,18490000.0,5.75,13.38,17950000.0,N/A
123,N/A,N/A,flir,N/A,N/A,N/A,N/A,N/A,22.32,17.69,2.67,2.55,15.72,19.42,8.01,15.05,11.10,4020000000.0,4020000000.0,17.40,1.27,2.59,11.45,2.59,750370000.0,11.45,244230000.0,1.71,38.20,1.70,525380000.0,3.80,362680000.0,4.29,11.76,260320000.0,0.60,6.05,86.60,2190000.0,1.78,1.78,2450000.0,N/A
124,N/A,N/A,flr,N/A,N/A,N/A,N/A,N/A,31.26,9.58,0.33,2.07,3.53,5.35,8.20,21.73,129.67,5100000000.0,5100000000.0,11.62,1.84,0.27,4.20,0.27,1400000000.0,4.20,688980000.0,4.52,146.40,19.40,2030000000.0,14.32,992690000.0,1.83,21.53,805650000.0,1.38,0.28,85.40,8720000.0,5.74,6.83,7930000.0,N/A
125,N/A,N/A,fls,N/A,N/A,N/A,N/A,N/A,98.69,14.45,1.10,3.03,7.63,14.91,8.72,19.92,34.62,6420000000.0,6420000000.0,12.55,1.89,1.38,7.82,1.38,1710000000.0,7.82,355330000.0,2.63,27.20,8.90,238010000.0,1.82,1680000000.0,2.02,12.96,572150000.0,1.65,0.39,96.70,6440000.0,7.37,5.49,6320000.0,N/A
126,N/A,N/A,fosl,N/A,N/A,N/A,N/A,N/A,91.72,4.88,0.47,1.77,9.22,14.00,12.86,34.01,66.61,1950000000.0,1950000000.0,8.45,1.49,0.59,3.56,0.59,2000000000.0,3.56,304380000.0,6.13,44.50,13.80,301570000.0,6.27,810510000.0,3.61,18.08,324460000.0,1.03,31.56,89.40,7500000.0,3.36,17.32,7550000.0,N/A
127,N/A,N/A,fslr,N/A,N/A,N/A,N/A,N/A,5.73,11.57,1.83,1.24,15.82,16.08,5.43,11.33,36.24,5120000000.0,5120000000.0,15.93,2.51,1.41,6.08,1.41,827100000.0,6.08,576560000.0,5.67,288.90,42.80,1810000000.0,17.93,308550000.0,3.63,53.40,513980000.0,2.68,26.64,57.20,5520000.0,2.36,7.63,5390000.0,N/A
128,N/A,N/A,fti,N/A,N/A,N/A,N/A,N/A,51.30,12.03,0.86,2.44,7.14,12.54,8.09,19.59,30.52,6510000000.0,6510000000.0,16.67,0.69,0.92,5.76,0.92,1940000000.0,5.76,506100000.0,2.16,51.70,21.80,711500000.0,3.12,1290000000.0,1.77,10.98,911300000.0,0.87,7.32,88.60,12040000.0,4.48,6.51,9830000.0,N/A
129,N/A,N/A,gd,N/A,N/A,N/A,N/A,N/A,31.80,14.85,1.29,3.86,9.06,13.05,7.65,24.75,98.38,41270000000.0,41270000000.0,13.68,1.46,1.29,8.86,1.29,5870000000.0,8.86,2940000000.0,8.77,5.30,3.10,3370000000.0,10.65,3410000000.0,1.16,33.90,2080000000.0,0.80,0.52,88.50,1.36,1.36,0.78,2089999.9999999998,N/A
130,N/A,N/A,ges,N/A,N/A,N/A,N/A,N/A,0.65,17.78,0.69,1.54,3.92,6.41,5.66,8.47,26.49,1140000000.0,1140000000.0,16.83,2.56,0.51,5.22,0.51,867880000.0,5.22,87390000.0,1.03,40.10,11.70,402390000.0,4.80,6640000.0,3.21,11.96,223440000.0,0.69,30.45,89.90,9710000.0,6.32,23.95,10090000.0,N/A
131,N/A,N/A,gild,N/A,N/A,N/A,N/A,N/A,123.83,8.86,4.41,8.01,53.78,67.86,33.56,106.05,21.23,1.4551e+11,1.4551e+11,8.00,0.56,4.63,6.49,4.63,21100000000.0,6.49,16910000000.0,10.89,68.40,37.30,15710000000.0,10.90,22220000000.0,2.77,12.02,18480000000.0,1.16,0.60,83.40,25250000.0,3.15,1.71,25170000.0,N/A
132,N/A,N/A,gis,N/A,N/A,N/A,N/A,N/A,147.49,22.87,1.89,6.82,8.60,16.95,8.00,23.55,28.81,40980000000.0,40980000000.0,18.01,3.19,2.37,11.82,2.37,5950000000.0,11.82,1490000000.0,2.42,53.00,6.10,649800000.0,1.10,8820000000.0,0.82,8.09,2840000000.0,0.68,0.32,71.70,11070000.0,3.43,1.85,13060000.0,N/A
133,N/A,N/A,glw,N/A,N/A,N/A,N/A,N/A,20.01,11.21,2.18,1.14,22.65,18.47,3.65,10.03,7.43,19290000000.0,19290000000.0,11.83,7.77,2.08,6.66,2.08,4050000000.0,6.66,2010000000.0,1.53,79.10,10.60,5010000000.0,4.24,4019999999.9999995,4.71,14.95,2960000000.0,1.32,0.19,80.20,63560000.0,5.74,5.02,73790000.0,N/A
134,N/A,N/A,gm,N/A,N/A,N/A,N/A,N/A,163.38,10.83,0.31,1.39,3.55,4.47,2.33,13.72,95.19,81490000000.0,81490000000.0,5.45,0.29,0.54,6.06,0.54,13810000000.0,6.06,4530000000.0,2.73,7.60,1.00,21860000000.0,14.05,57400000000.0,1.13,21.65,12630000000.0,1.46,4.66,76.50,36330000.0,3.20,2.26,35260000.0,N/A
135,N/A,N/A,gmcr,N/A,N/A,N/A,N/A,N/A,16.64,28.75,2.97,5.10,11.02,17.70,11.36,16.12,28.74,13840000000.0,13840000000.0,24.80,1.99,3.06,12.99,3.06,1610000000.0,12.99,498270000.0,3.14,32.90,13.30,59330000.0,0.40,451500000.0,2.52,17.68,754860000.0,0.93,25.34,67.60,11540000.0,1.45,17.42,19630000.0,N/A
136,N/A,N/A,gme,N/A,N/A,N/A,N/A,N/A,18.07,7.66,0.32,1.54,4.29,7.18,8.83,20.21,87.04,3130000000.0,3130000000.0,6.84,0.73,0.34,3.81,0.34,2780000000.0,3.81,399100000.0,3.71,0.90,3.60,186200000.0,1.78,350900000.0,1.05,18.51,632000000.0,1.22,1.88,136.40,48090000.0,12.97,54.21,49670000.0,N/A
137,N/A,N/A,gpc,N/A,N/A,N/A,N/A,N/A,19.71,16.93,0.79,3.86,4.60,7.34,8.55,21.26,101.27,12270000000.0,12270000000.0,16.03,3.64,0.80,9.61,0.80,4590000000.0,9.61,709960000.0,4.64,1.30,1.60,199290000.0,1.32,625000000.0,1.49,20.95,1100000000.0,1.18,2.72,73.70,4510000.0,6.85,3.03,4300000.0,N/A
138,N/A,N/A,gt,N/A,N/A,N/A,N/A,N/A,121.16,2.74,0.46,1.86,16.83,10.06,6.16,75.22,61.76,11880000000.0,11880000000.0,7.52,0.84,0.71,4.99,0.71,4230000000.0,4.99,2820000000.0,10.26,68.30,10.20,1690000000.0,6.29,6000000000.0,1.66,15.41,1910000000.0,2.26,0.27,88.80,13290000.0,4.73,5.03,12940000.0,N/A
139,N/A,N/A,gtn,N/A,N/A,N/A,N/A,N/A,296.18,16.06,1.65,2.40,9.17,30.31,5.70,18.17,9.34,2130000000.0,2130000000.0,7.71,3.70,3.51,9.21,3.51,222140000.0,9.21,55570000.0,0.85,52.60,14.70,81170000.0,1.13,1240000000.0,2.49,5.82,128530000.0,3.59,5.84,84.50,1950000.0,2.60,4.63,2060000.0,N/A
140,N/A,N/A,gww,N/A,N/A,N/A,N/A,N/A,74.13,17.14,1.24,5.24,7.72,14.04,15.77,26.58,150.21,13790000000.0,13790000000.0,16.72,3.96,1.38,8.65,1.38,4310000000.0,8.65,764830000.0,11.36,16.60,1.10,258150000.0,4.11,1810000000.0,2.00,37.61,1030000000.0,0.71,13.10,86.30,9990000.0,14.09,16.33,8180000.0,N/A
141,N/A,N/A,har,N/A,N/A,N/A,N/A,N/A,44.65,17.60,0.98,2.63,5.46,8.73,7.03,16.44,89.75,6730000000.0,6730000000.0,11.13,0.88,1.06,9.11,1.06,1820000000.0,9.11,346810000.0,4.86,5.00,14.10,410860000.0,5.78,1060000000.0,1.38,33.11,386600000.0,0.71,0.56,101.10,2870000.0,4.63,4.51,3000000.0,N/A
142,N/A,N/A,has,N/A,N/A,N/A,N/A,N/A,105.67,19.35,2.01,5.59,10.42,15.49,9.12,28.23,34.19,9580000000.0,9580000000.0,17.27,1.89,2.24,11.66,2.24,2580000000.0,11.66,445990000.0,3.52,15.00,0.10,574130000.0,4.61,1670000000.0,2.65,12.37,497140000.0,1.23,10.03,87.60,8700000.0,5.58,8.85,8610000.0,N/A
143,N/A,N/A,hcn,N/A,N/A,N/A,N/A,N/A,74.94,26.68,6.63,1.76,25.90,28.27,2.47,6.55,10.61,35600000000.0,35600000000.0,14.74,2.94,9.82,19.43,9.82,1900000000.0,19.43,874050000.0,2.55,30.00,14.10,292040000.0,0.83,11470000000.0,2.02,38.64,1320000000.0,0.02,0.31,92.60,10700000.0,3.93,3.57,9570000.0,N/A
144,N/A,N/A,hcp,N/A,N/A,N/A,N/A,N/A,106.62,72.93,6.84,1.67,9.53,52.70,3.81,2.31,5.38,28240000000.0,28240000000.0,11.44,3.63,11.39,15.76,11.39,2190000000.0,15.76,234760000.0,0.50,53.40,10.30,120500000.0,0.26,11150000000.0,16.99,21.89,1230000000.0,0.03,0.20,89.70,16469999.999999998,4.51,4.11,14340000.0,N/A
145,N/A,N/A,hd,N/A,N/A,N/A,N/A,N/A,273.82,23.25,1.83,20.87,7.98,13.05,16.51,78.03,67.21,1.7491e+11,1.7491e+11,20.05,1.61,2.02,13.31,2.02,28950000000.0,13.31,6920000000.0,5.33,12.20,6.40,3040000000.0,2.40,20860000000.0,1.17,6.01,9360000000.0,0.96,0.15,73.40,18490000.0,3.10,1.43,11460000.0,N/A
146,N/A,N/A,hig,N/A,N/A,N/A,N/A,N/A,32.09,10.69,0.92,0.93,8.92,12.22,0.59,8.62,43.72,18300000000.0,18300000000.0,10.21,1.53,0.99,6.99,0.99,7810000000.0,6.99,1600000000.0,3.80,1.80,4.20,4190000000.0,10.22,5840000000.0,3.78,44.26,2990000000.0,1.06,0.18,92.50,4520000.0,1.88,1.07,4850000.0,N/A
147,N/A,N/A,hog,N/A,N/A,N/A,N/A,N/A,270.98,11.70,1.46,3.43,13.04,19.79,7.17,26.85,28.82,14830000000.0,14830000000.0,10.64,1.14,2.47,10.74,2.47,2440000000.0,10.74,784490000.0,3.74,6.50,1.20,1010000000.0,4.96,6940000000.0,1.73,12.57,1200000000.0,0.70,0.50,82.60,23530000.0,9.47,11.21,23710000.0,N/A
148,N/A,N/A,hon,N/A,N/A,N/A,N/A,N/A,58.17,17.24,1.97,4.31,11.66,16.30,8.53,24.68,49.65,76090000000.0,76090000000.0,14.98,1.73,1.96,10.54,1.96,11350000000.0,10.54,4530000000.0,5.71,8.30,4.90,10330000000.0,13.41,10570000000.0,1.44,23.04,5260000000.0,0.98,0.17,78.60,4620000.0,1.42,0.65,4690000.0,N/A
149,N/A,N/A,hot,N/A,N/A,N/A,N/A,N/A,188.28,19.56,3.44,8.55,17.93,27.45,6.42,33.37,18.20,12050000000.0,12050000000.0,19.24,2.42,3.88,10.99,3.88,4280000000.0,10.99,568000000.0,3.26,19.30,7.30,1070000000.0,6.31,2360000000.0,0.96,7.39,992000000.0,1.85,6.38,87.70,1820000.0,0.49,1.07,2140000.0,N/A
150,N/A,N/A,hrl,N/A,N/A,N/A,N/A,N/A,10.87,30.78,2.24,5.20,7.41,11.71,11.69,18.05,35.08,20740000000.0,20740000000.0,24.89,1.49,2.24,17.03,2.24,1810000000.0,17.03,686090000.0,2.54,9.30,5.60,347240000.0,1.31,435000000.0,1.70,15.13,991990000.0,0.89,48.89,33.70,8119999.999999999,5.88,6.04,8620000.0,N/A
151,N/A,N/A,hrs,N/A,N/A,N/A,N/A,N/A,146.72,27.01,1.87,3.09,6.22,16.83,6.94,13.58,51.97,15440000000.0,15440000000.0,13.85,7.86,2.69,12.53,2.69,1720000000.0,12.53,357000000.0,3.18,18.40,56.80,320000000.0,2.57,5080000000.0,1.63,27.88,838000000.0,1.24,0.30,85.20,2470000.0,2.78,2.01,2180000.0,N/A
152,N/A,N/A,hst,N/A,N/A,N/A,N/A,N/A,59.95,16.83,2.03,1.54,12.04,12.49,3.49,9.03,7.16,15020000000.0,15020000000.0,8.74,2.91,2.79,10.84,2.79,3320000000.0,10.84,649000000.0,0.86,41.00,0.10,265000000.0,0.35,4280000000.0000005,1.75,9.43,1200000000.0,1.18,1.72,103.10,43450000.0,5.10,7.71,45250000.0,N/A
153,N/A,N/A,hum,N/A,N/A,N/A,N/A,N/A,39.88,19.87,0.49,2.51,2.48,4.56,6.24,12.89,354.70,20740000000.0,20740000000.0,19.58,1.71,0.39,7.69,0.39,10330000000.0,7.69,1320000000.0,8.70,8.30,9.20,9020000000.0,60.85,4130000000.0,2.04,69.85,724000000.0,0.83,0.22,96.30,2330000.0,2.40,1.56,2450000.0,N/A
154,N/A,N/A,ibm,N/A,N/A,N/A,N/A,N/A,294.85,9.16,1.54,9.69,16.96,20.88,9.61,103.55,85.16,1.5779e+11,1.5779e+11,8.74,1.22,1.88,7.37,1.88,46410000000.0,7.37,14420000000.0,14.37,288.90,13.90,9570000000.0,9.86,39660000000.0,1.25,13.70,17790000000.0,0.63,0.05,59.90,23350000.0,5.58,2.37,21370000.0,N/A
155,N/A,N/A,iff,N/A,N/A,N/A,N/A,N/A,74.92,22.00,3.05,5.89,14.04,19.71,10.22,26.56,37.99,10260000000.0,10260000000.0,20.41,2.94,3.35,15.21,3.35,1360000000.0,15.21,428110000.0,5.29,0.90,1.10,276680000.0,3.45,1200000000.0,2.38,19.81,495580000.0,1.22,1.59,84.20,3430000.0,7.03,4.32,3520000.0,N/A
156,N/A,N/A,intc,N/A,N/A,N/A,N/A,N/A,37.18,13.55,2.72,2.64,20.79,26.43,9.63,20.27,11.60,1.4872e+11,1.4872e+11,13.30,1.71,2.70,6.38,2.70,35610000000.0,6.38,11470000000.0,2.33,6.30,0.60,21210000000.0,4.49,21230000000.0,2.40,12.07,19360000000.0,0.86,0.04,67.00,95230000.0,4.17,2.01,88450000.0,N/A
157,N/A,N/A,ip,N/A,N/A,N/A,N/A,N/A,356.06,17.05,0.66,3.46,3.91,10.71,4.99,15.31,54.53,24850000000.0,24850000000.0,9.30,0.73,1.09,6.58,1.09,7360000000.0,6.58,903000000.0,2.11,38.00,5.90,5950000000.0,14.35,15920000000.0,1.34,10.49,2730000000.0,1.43,0.66,86.70,6750000.0,2.03,1.71,7790000.0,N/A
158,N/A,N/A,ipg,N/A,N/A,N/A,N/A,N/A,82.70,18.21,1.18,4.83,6.60,11.12,4.56,23.56,18.56,10360000000.0,10360000000.0,16.70,2.13,1.36,10.30,1.36,7540000000.0,10.30,503200000.0,1.21,16.50,1.30,881200000.0,2.17,1750000000.0,1.01,4.59,794800000.0,1.69,0.56,97.40,10860000.0,3.60,2.64,9230000.0,N/A
159,N/A,N/A,ir,N/A,N/A,N/A,N/A,N/A,78.87,20.09,1.02,2.36,5.20,11.03,5.25,11.29,49.74,17310000000.0,17310000000.0,12.83,1.88,1.31,9.79,1.31,3910000000.0,9.79,666700000.0,2.55,3.30,3.00,651500000.0,2.50,4570000000.0,1.22,21.96,728600000.0,1.43,0.32,86.30,1840000.0,0.95,0.70,3080000.0,N/A
160,N/A,N/A,irm,N/A,N/A,N/A,N/A,N/A,834.86,41.73,1.83,9.11,4.30,17.88,5.09,24.27,14.53,10090000000.0,10090000000.0,11.59,1.26,3.33,11.18,3.33,1770000000.0,11.18,129560000.0,0.61,915.20,4.60,492900000.0,2.33,5170000000.0,1.35,2.88,491190000.0,1.00,4.63,101.40,19070000.0,14.13,12.13,19180000.0,N/A
161,N/A,N/A,itw,N/A,N/A,N/A,N/A,N/A,153.48,16.65,2.26,6.06,13.93,21.09,10.23,29.63,36.50,35350000000.0,35350000000.0,15.36,2.07,2.59,10.55,2.59,5810000000.0,10.55,1910000000.0,5.05,3.80,9.20,3000000000.0,8.26,7810000000.0,2.56,13.99,2050000000.0,1.10,0.98,77.40,8240000.0,5.03,2.80,8189999.999999999,N/A
162,N/A,N/A,ivz,N/A,N/A,N/A,N/A,N/A,81.47,12.57,2.59,1.65,20.08,27.01,3.87,10.87,11.93,17720000000.0,17720000000.0,11.08,1.28,3.43,11.94,3.43,5150000000.0,11.94,1040000000.0,2.40,2.60,2.90,2410000000.0,5.68,7360000000.0,6.77,19.09,738600000.0,1.50,1.32,85.60,3500000.0,1.06,0.83,4300000.0,N/A
163,N/A,N/A,jbl,N/A,N/A,N/A,N/A,N/A,90.23,11.30,0.21,1.63,1.85,3.49,4.24,15.16,96.20,4820000000.0,4820000000.0,6.99,0.63,0.26,3.96,0.26,1500000000.0,3.96,351560000.0,1.76,82.80,14.50,1130000000.0,5.93,2170000000.0,1.09,12.50,1200000000.0,0.46,8.71,99.00,11310000.0,4.11,6.10,14100000.0,N/A
164,N/A,N/A,jci,N/A,N/A,N/A,N/A,N/A,61.49,14.93,0.62,2.24,4.20,5.99,4.45,13.78,56.75,28900000000.0,28900000000.0,8.34,0.86,0.78,9.37,0.78,6450000000.0,9.37,1440000000.0,2.37,12.90,12.10,603000000.0,0.93,6610000000.0,1.06,16.03,1600000000.0,1.67,0.28,80.30,7430000.0,2.07,1.15,6800000.0,N/A
165,N/A,N/A,jec,N/A,N/A,N/A,N/A,N/A,13.72,16.15,0.40,1.13,2.50,3.68,3.43,7.42,96.91,4890000000.0,4890000000.0,11.30,1.73,0.40,8.24,0.40,1970000000.0,8.24,302970000.0,2.40,65.30,3.20,460860000.0,3.76,597800000.0,1.66,34.85,484570000.0,1.49,2.12,94.10,3890000.0,2.98,3.23,4440000.0,N/A
166,N/A,N/A,jnj,N/A,N/A,N/A,N/A,N/A,27.86,18.84,3.89,3.84,20.87,26.73,8.88,19.87,25.37,2.5423e+11,2.5423e+11,15.34,2.96,3.61,11.27,3.61,51580000000.0,11.27,14720000000.0,5.21,29.30,7.40,37310000000.0,13.48,19940000000.0,2.51,25.86,18560000000.0,0.99,0.02,67.30,28510000.0,3.91,1.03,27540000.0,N/A
167,N/A,N/A,jwn,N/A,N/A,N/A,N/A,N/A,199.50,13.25,0.62,6.39,4.72,8.65,8.65,36.67,75.46,10490000000.0,10490000000.0,12.84,2.82,0.73,5.85,0.73,5100000000.0,5.85,675000000.0,3.49,43.00,6.00,821000000.0,4.47,2810000000.0,1.22,7.59,2450000000.0,0.85,26.42,56.60,20580000.0,5.19,14.70,12020000.0,N/A
168,N/A,N/A,k,N/A,N/A,N/A,N/A,N/A,297.38,70.56,1.79,9.35,2.61,7.94,4.41,11.80,39.23,32980000000.0,32980000000.0,19.37,3.40,2.37,20.37,2.37,5060000000.0,20.37,362000000.0,1.01,8.50,8.50,299000000.0,0.84,7950000000.0,0.66,7.52,1560000000.0,0.62,0.25,82.60,8050000.000000001,3.46,3.19,6330000.0,N/A
169,N/A,N/A,kim,N/A,N/A,N/A,N/A,N/A,106.14,20.45,9.36,2.15,50.08,34.46,2.25,11.79,2.76,15740000000.0,15740000000.0,16.27,3.32,13.89,21.81,13.89,735280000.0,21.81,530540000.0,1.23,60.20,13.00,180910000.0,0.44,5500000000.0,3.33,11.93,636620000.0,0.73,2.70,90.30,9280000.0,2.75,2.77,10560000.0,N/A
170,N/A,N/A,kmb,N/A,N/A,N/A,N/A,N/A,774.28,77.69,2.44,851.41,3.16,18.24,12.74,27.94,51.60,52470000000.0,52470000000.0,20.26,2.76,2.78,12.45,2.78,6680000000.0,12.45,612000000.0,1.61,8.00,6.70,643000000.0,1.77,7660000000.0,0.88,0.15,2230000000.0,0.85,0.34,69.10,4520000.0,2.80,1.24,5230000.0,N/A
171,N/A,N/A,kmi,N/A,N/A,N/A,N/A,N/A,124.63,28.03,2.16,0.89,7.30,28.43,3.21,4.67,7.38,77300000000.0,77300000000.0,19.96,5.37,5.25,12.02,5.25,7790000000.0,12.02,1060000000.0,0.53,43.50,13.60,332000000.0,0.15,44670000000.0,0.50,15.94,4480000000.0,0.99,13.70,56.50,52900000.0,0.87,3.00,57960000.0,N/A
172,N/A,N/A,kmx,N/A,N/A,N/A,N/A,N/A,364.26,15.66,0.62,3.20,4.18,7.00,4.81,20.53,72.34,19730000000.0,19730000000.0,13.72,1.05,1.32,16.75,1.32,1890000000.0,16.75,625540000.0,2.99,1.40,4.10,34970000.0,0.18,10610000000.0,2.85,14.74,565090000.0,1.10,0.56,103.90,22060000.0,11.65,12.55,21540000.0,N/A
173,N/A,N/A,ko,N/A,N/A,N/A,N/A,N/A,176.90,26.47,4.01,6.94,15.24,23.09,6.88,23.03,10.36,2.0419e+11,2.0419e+11,20.15,7.32,4.52,16.51,4.52,28110000000.0,16.51,6880000000.0,1.57,31.50,4.60,22800000000.0,5.24,46460000000.0,1.16,6.00,11030000000.0,0.83,0.69,63.20,2.04,2.04,0.76,29690000.0,N/A
174,N/A,N/A,kss,N/A,N/A,N/A,N/A,N/A,93.81,12.72,0.50,1.77,3.90,8.70,6.95,13.23,97.23,13720000000.0,13720000000.0,10.39,1.30,0.72,5.32,0.72,6920000000.0,5.32,746000000.0,3.76,15.50,1.20,501000000.0,2.64,5140000000.0,1.58,28.66,1500000000.0,1.38,0.87,109.60,25860000.0,6.71,12.87,23410000.0,N/A
175,N/A,N/A,ksu,N/A,N/A,N/A,N/A,N/A,56.04,15.85,3.06,1.95,19.70,32.82,6.26,11.97,22.37,9840000000.0,9840000000.0,14.77,2.83,4.00,9.06,4.00,1700000000.0,9.06,485000000.0,4.40,4.70,6.70,116600000.0,1.07,2340000000.0,1.25,35.45,895400000.0,0.91,1.34,92.80,5580000.0,2.97,5.12,6690000.0,N/A
176,N/A,N/A,l,N/A,N/A,N/A,N/A,N/A,44.59,19.88,0.94,0.69,4.92,16.74,1.82,3.57,36.81,17320000000.0,17320000000.0,12.82,2.46,1.27,5.43,1.27,8730000000.0,5.43,676000000.0,1.81,12.50,10.00,6170000000.0,17.42,10770000000.0,0.50,52.52,3090000000.0,0.78,16.39,27.00,4150000.0000000005,3.40,1.33,3860000.0,N/A
177,N/A,N/A,leg,N/A,N/A,N/A,N/A,N/A,90.19,21.76,1.39,5.03,6.76,11.20,8.79,25.11,27.79,6240000000.0,6240000000.0,17.27,1.46,1.59,11.43,1.59,790400000.0,11.43,288600000.0,1.86,97.50,1.20,251200000.0,1.85,992500000.0,1.84,8.01,423000000.0,1.14,12.33,62.20,5190000.0,6.31,3.83,4850000.0,N/A
178,N/A,N/A,lh,N/A,N/A,N/A,N/A,N/A,135.55,25.34,1.54,2.44,5.69,15.41,6.91,11.49,82.22,17730000000.0,17730000000.0,13.21,1.27,2.28,11.31,2.28,2200000000.0,11.31,442200000.0,4.59,11.40,46.30,713000000.0,7.05,6680000000.0,1.47,48.55,811500000.0,0.70,5.66,2.80,3540000.0,3.81,3.53,3370000.0,N/A
179,N/A,N/A,lly,N/A,N/A,N/A,N/A,N/A,53.01,36.63,4.39,5.68,11.97,19.71,6.84,14.33,18.53,90000000000.0,90000000000.0,22.89,1.69,4.57,16.96,4.57,14680000000.0,16.96,2360000000.0,2.22,59.70,1.70,4320000000.0,4.07,8080000000.0,1.51,14.34,3320000000.0,0.18,11.81,65.90,13670000.0,3.22,1.40,13560000.0,N/A
180,N/A,N/A,lm,N/A,N/A,N/A,N/A,N/A,23.37,12.57,1.38,0.87,11.38,18.99,4.88,7.02,25.59,3750000000.0,3750000000.0,10.63,0.54,1.34,6.40,1.34,2760000000.0,6.40,310620000.0,2.81,213.40,4.40,1110000000.0,10.33,1060000000.0,2.96,41.19,588210000.0,1.64,0.69,90.60,5660000.0,5.13,5.14,4550000.0,N/A
181,N/A,N/A,lmt,N/A,N/A,N/A,N/A,N/A,299.04,18.89,1.43,23.30,7.82,11.73,8.76,96.82,146.30,70540000000.0,70540000000.0,17.45,2.55,1.54,11.86,1.54,5260000000.0,11.86,3580000000.0,11.27,2.60,3.10,3300000000.0,10.74,8410000000.0,1.16,9.15,3540000000.0,0.60,0.03,83.90,2450000.0,1.61,0.94,3400000.0,N/A
182,N/A,N/A,lnc,N/A,N/A,N/A,N/A,N/A,43.47,9.40,0.80,0.78,8.71,12.18,0.43,8.17,55.23,11520000000.0,11520000000.0,6.76,0.90,0.82,6.73,0.82,4800000000.0,6.73,1220000000.0,4.71,48.30,9.00,5690000000.0,22.98,6260000000.0,4.82,58.19,2920000000.0,1.75,0.33,84.30,2180000.0,1.12,0.85,2570000.0,N/A
183,N/A,N/A,low,N/A,N/A,N/A,N/A,N/A,150.38,22.49,1.13,7.89,5.11,9.21,9.92,31.24,62.06,76080000000.0,76080000000.0,17.85,1.25,1.30,10.94,1.30,19560000000.0,10.94,2970000000.0,3.15,25.80,5.00,1380000000.0,1.51,12600000000.0,1.02,9.14,4790000000.0,0.97,0.14,77.10,7570000.0,1.44,0.80,8600000.0,N/A
184,N/A,N/A,lrcx,N/A,N/A,N/A,N/A,N/A,44.23,15.48,1.99,2.12,14.07,18.25,7.45,15.67,35.94,9200000000.0,9200000000.0,10.65,1.05,1.61,6.96,1.61,2280000000.0,6.96,803170000.0,4.55,104.60,38.80,4330000000.0,27.35,2370000000.0,2.86,33.89,1090000000.0,1.57,0.41,101.70,18930000.0,9.50,13.74,18190000.0,N/A
185,N/A,N/A,luv,N/A,N/A,N/A,N/A,N/A,39.06,15.53,1.41,3.92,9.51,19.57,11.32,25.49,28.88,27080000000.0,27080000000.0,10.25,0.39,1.40,5.82,1.40,10930000000.0,5.82,1840000000.0,2.72,77.50,7.20,3100000000.0,4.76,2720000000.0,0.65,10.71,3120000000.0,1.30,0.08,77.80,13500000.0,1.95,2.26,15360000.0,N/A
186,N/A,N/A,lyb,N/A,N/A,N/A,N/A,N/A,113.32,8.54,1.00,4.95,12.44,17.10,15.50,51.99,75.42,41010000000.0,41010000000.0,7.84,1.11,1.14,5.75,1.14,6670000000.0,5.75,4470000000.0,9.32,5.80,30.90,3090000000.0,6.87,8330000000.0,2.16,16.18,6700000000.0,1.00,18.58,76.20,9710000.0,2.79,2.51,10740000.0,N/A
187,N/A,N/A,m,N/A,N/A,N/A,N/A,N/A,200.33,9.29,0.42,2.92,4.79,9.48,7.34,28.31,81.96,18770000000.0,18770000000.0,9.44,3.29,0.68,5.12,0.68,11240000000.0,5.12,1320000000.0,3.86,45.60,5.20,474000000.0,1.51,7960000000.0,1.19,12.63,2150000000.0,1.20,0.30,91.90,9730000.0,1.11,2.86,9550000.0,N/A
188,N/A,N/A,ma,N/A,N/A,N/A,N/A,N/A,23.74,27.60,10.73,16.44,38.77,53.47,21.89,57.90,8.41,97310000000.0,97310000000.0,23.11,1.75,10.14,17.74,10.14,9470000000.0,17.74,3720000000.0,3.26,3.70,1.60,5110000000.0,4.55,1500000000.0,1.62,5.57,3730000000.0,1.27,10.55,79.60,6550000.0,1.84,0.66,7280000.0,N/A
189,N/A,N/A,mac,N/A,N/A,N/A,N/A,N/A,117.41,8.22,9.66,2.36,113.49,25.79,1.89,34.41,8.46,19210000000.0,19210000000.0,19.36,3.07,14.52,23.99,14.52,663320000.0,23.99,1500000000.0,9.58,6.50,20.10,93010000.0,0.59,6830000000.0,0.64,34.24,517450000.0,0.86,0.66,102.40,4290000.0,3.63,3.80,5200000.0,N/A
190,N/A,N/A,mat,N/A,N/A,N/A,N/A,N/A,87.89,30.43,1.61,3.57,5.34,9.92,5.22,10.79,16.81,11110000000.0,11110000000.0,19.37,8.84,1.95,13.32,1.95,3000000000.0,13.32,300290000.0,0.89,32.60,11.40,289700000.0,0.85,2260000000.0,2.21,7.58,810540000.0,1.18,0.25,101.80,62020000.0,8.69,18.37,68870000.0,N/A
191,N/A,N/A,mcd,N/A,N/A,N/A,N/A,N/A,216.50,25.01,4.14,12.78,17.24,28.60,13.29,40.31,26.92,1.2158e+11,1.2158e+11,21.54,2.88,4.74,13.65,4.74,10460000000.0,13.65,4420000000.0,4.62,22.50,5.30,2450000000.0,2.67,17990000000.0,1.52,9.05,6660000000.0,0.75,0.05,69.30,12870000.0,2.14,1.35,14500000.0,N/A
192,N/A,N/A,mchp,N/A,N/A,N/A,N/A,N/A,126.23,24.02,4.04,4.07,17.75,21.27,5.49,17.29,10.61,9120000000.0,9120000000.0,14.08,2.27,4.25,12.42,4.25,1230000000.0,12.42,381020000.0,1.73,30.70,0.90,2000000000.0,9.85,2690000000.0,7.48,10.49,694760000.0,0.95,2.38,98.80,16489999.999999998,9.41,8.36,17270000.0,N/A
193,N/A,N/A,mck,N/A,N/A,N/A,N/A,N/A,91.30,23.86,0.23,4.92,0.96,1.77,3.84,20.83,807.38,46000000000.0,46000000000.0,12.63,0.98,0.25,10.92,0.25,11410000000.0,10.92,2090000000.0,7.64,31.60,10.40,5360000000.0,23.29,9390000000.0,1.11,38.19,4200000000.0,0.78,0.29,86.50,1880000.0,1.16,0.82,2200000.0,N/A
194,N/A,N/A,mdlz,N/A,N/A,N/A,N/A,N/A,54.94,7.99,2.13,2.22,27.32,12.57,3.58,27.96,18.97,79490000000.0,79490000000.0,20.19,2.42,2.56,16.44,2.56,12600000000.0,16.44,8500000000.0,5.13,708.20,17.80,2100000000.0,1.33,16460000000.0,0.89,18.77,3820000000.0,1.29,2.90,77.40,15090000.0,1.89,0.95,14020000.0,N/A
195,N/A,N/A,mdt,N/A,N/A,N/A,N/A,N/A,68.72,42.16,4.05,2.00,8.97,21.04,4.72,6.46,19.72,1.2244e+11,1.2244e+11,15.21,2.46,4.74,15.87,4.74,13950000000.0,15.87,2320000000.0,1.75,37.20,61.70,17230000000.0,12.25,35920000000.0,3.54,37.17,5770000000.0,1.37,0.05,83.30,12800000.0,2.11,0.91,14500000.0,N/A
196,N/A,N/A,met,N/A,N/A,N/A,N/A,N/A,91.26,8.15,0.66,0.67,8.34,13.31,0.67,8.43,63.95,75430000000.0,75430000000.0,7.11,1.45,1.05,7.49,1.05,34210000000.0,7.49,5860000000.0,5.16,42.60,4.20,36150000000.0,32.52,64849999999.99999,1.48,63.24,14950000000.0,1.47,15.69,77.50,15120000.0,2.47,1.61,13020000.0,N/A
197,N/A,N/A,mhfi,N/A,N/A,N/A,N/A,N/A,230.45,383.16,4.71,37.44,1.21,38.79,17.56,0.41,19.19,25970000000.0,25970000000.0,17.99,1.57,4.97,11.99,4.97,5050000000.0,11.99,100000000.0,0.23,32.60,4.80,1440000000.0,5.33,3490000000.0,1.13,2.43,94000000.0,1.43,2.94,87.30,2920000.0,2.19,1.10,2990000.0,N/A
198,N/A,N/A,mjn,N/A,N/A,N/A,N/A,N/A,469.35,21.75,3.55,42.42,16.29,23.24,16.33,139.37,20.77,14890000000.0,14890000000.0,20.53,2.52,3.55,13.87,3.55,2710000000.0,13.87,682200000.0,3.36,17.30,10.40,1360000000.0,6.92,1840000000.0,2.04,1.78,837700000.0,1.44,0.21,98.70,15980000.0,8.12,7.91,14410000.0,N/A
199,N/A,N/A,mmc,N/A,N/A,N/A,N/A,N/A,70.69,18.85,2.19,4.49,11.86,18.44,8.26,21.39,23.92,30780000000.0,30780000000.0,15.81,1.52,2.40,11.10,2.40,12950000000.0,11.10,1490000000.0,2.81,8.80,0.80,1330000000.0,2.55,4480000000.0,1.62,11.97,1950000000.0,1.06,0.21,86.00,6240000.0,3.02,1.16,4980000.0,N/A
200,N/A,N/A,mmm,N/A,N/A,N/A,N/A,N/A,92.06,18.16,2.83,7.12,16.20,23.16,13.46,35.04,48.60,96000000000.0,96000000000.0,17.05,2.55,3.13,11.30,3.13,15370000000.0,11.30,4970000000.0,7.74,0.50,5.20,1760000000.0,2.86,11250000000.0,1.65,19.79,6260000000.0,1.20,0.08,68.70,6950000.0,2.79,1.19,7170000.0,N/A
201,N/A,N/A,mo,N/A,N/A,N/A,N/A,N/A,443.11,21.91,6.08,39.44,27.91,45.55,16.15,144.46,9.54,1.2505e+11,1.2505e+11,19.03,2.44,6.67,14.30,6.67,10160000000.0,14.30,5220000000.0,2.66,9.40,4.70,1910000000.0,0.97,12920000000.0,0.84,1.47,5690000000.0,0.89,0.15,60.60,9410000.0,1.86,0.48,10190000.0,N/A
202,N/A,N/A,mpc,N/A,N/A,N/A,N/A,N/A,51.78,7.31,0.36,2.09,4.87,7.95,11.42,28.98,130.78,29270000000.0,29270000000.0,8.44,0.69,0.41,4.12,0.41,13540000000.0,4.12,3460000000.0,6.32,41.10,29.70,2040000000.0,3.84,6690000000.0,1.41,22.99,3640000000.0,1.51,0.87,83.90,8690000.0,1.56,1.80,9600000.0,N/A
203,N/A,N/A,mrk,N/A,N/A,N/A,N/A,N/A,58.38,13.55,3.65,3.19,27.11,21.35,5.23,23.74,14.05,1.5727e+11,1.5727e+11,13.62,3.77,3.96,10.80,3.96,25470000000.0,10.80,10780000000.0,3.77,104.00,4.60,12090000000.0,4.33,26670000000.0,1.63,16.27,7010000000.0,0.76,0.04,75.20,25610000.0,2.63,0.91,24810000.0,N/A
204,N/A,N/A,msft,N/A,N/A,N/A,N/A,N/A,50.00,34.79,4.59,5.38,13.52,29.73,9.85,14.64,11.19,3.575e+11,3.575e+11,16.77,2.08,3.94,11.02,3.94,60540000000.0,11.02,12270000000.0,1.50,1.80,12.20,99230000000.0,12.42,38720000000.0,2.46,9.70,29320000000.0,1.02,3.78,72.60,50160000.0,1.45,0.65,47600000.0,N/A
205,N/A,N/A,myl,N/A,N/A,N/A,N/A,N/A,65.56,27.53,2.81,2.59,9.34,19.99,6.18,12.76,20.35,30100000000.0,30100000000.0,9.94,1.14,3.34,11.42,3.34,3530000000.0,11.42,842200000.0,1.80,14.10,29.30,637700000.0,1.30,6430000000.0,1.76,19.96,1480000000.0,1.27,14.24,37.80,61290000.0,8.28,16.73,60950000.0,N/A
206,N/A,N/A,ndaq,N/A,N/A,N/A,N/A,N/A,43.91,26.20,2.71,1.69,10.58,26.49,4.68,6.26,20.56,11290000000.0,11290000000.0,15.04,1.82,3.27,10.74,3.27,1950000000.0,10.74,366000000.0,2.13,12.20,6.50,310000000.0,1.89,2440000000.0,1.11,33.80,752000000.0,0.87,18.44,78.40,3370000.0,2.81,2.82,3380000.0,N/A
207,N/A,N/A,ne,N/A,N/A,N/A,N/A,N/A,59.12,45.50,0.70,0.33,1.67,36.52,5.43,1.79,13.16,6530000000.0,6530000000.0,8.20,0.06,2.03,4.14,2.03,1670000000.0,4.14,63890000.0,0.20,156.20,7.90,164430000.0,0.68,4490000000.0,1.03,28.39,1640000000.0,1.78,0.73,101.80,58410000.0,7.80,10.60,57280000.0,N/A
208,N/A,N/A,nee,N/A,N/A,N/A,N/A,N/A,132.59,15.11,2.67,2.16,17.31,29.42,4.37,14.94,40.69,77520000000.0,77520000000.0,17.07,2.63,4.29,9.16,4.29,8270000000.0,9.16,3130000000.0,6.96,33.20,6.40,1180000000.0,2.56,30260000000.0,0.64,48.46,6040000000.0,0.54,0.24,73.50,6060000.0,2.56,1.37,6420000.0,N/A
209,N/A,N/A,nem,N/A,N/A,N/A,N/A,N/A,43.59,18.70,1.26,0.86,6.17,30.61,5.99,5.15,15.61,12890000000.0,12890000000.0,24.67,9.46,1.63,3.69,1.63,2840000000.0,3.69,479000000.0,0.96,2.80,16.40,2990000000.0,5.65,6350000000.0,3.07,21.82,2430000000.0,0.45,0.13,80.30,7900000.0,1.06,1.58,11230000.0,N/A
210,N/A,N/A,nflx,N/A,N/A,N/A,N/A,N/A,111.74,296.25,7.60,22.59,2.53,4.83,2.33,8.37,15.17,47420000000.0,47420000000.0,428.42,21.65,7.36,127.44,7.36,1750000000.0,127.44,162830000.0,0.38,50.40,23.30,2610000000.0,6.11,2420000000.0,1.67,5.07,543160000.0,1.44,1.82,87.50,50740000.0,2.79,14.22,51480000.0,N/A
211,N/A,N/A,nile,N/A,N/A,N/A,N/A,N/A,4.29,39.57,0.83,35.06,2.12,3.13,9.92,102.20,41.54,368010000.0,368010000.0,33.12,2.22,0.76,21.80,0.76,86640000.0,21.80,10330000.0,0.88,19.80,4.00,33610000.0,2.91,4.29,0.99,1.00,14730000.0,0.04,0.90,106.60,1040000.0,11.61,14.67,1070000.0,N/A
212,N/A,N/A,nke,N/A,N/A,N/A,N/A,N/A,16.23,28.59,3.25,7.62,11.55,14.05,13.19,28.84,18.29,96320000000.0,96320000000.0,23.74,2.17,3.07,19.04,3.07,14070000000.0,19.04,3620000000.0,2.06,19.80,4.10,6120000000.0,3.59,2180000000.0,3.04,7.85,4170000000.0,0.63,0.20,83.90,1.43,1.43,1.10,0.64,N/A
213,N/A,N/A,noc,N/A,N/A,N/A,N/A,N/A,114.57,17.97,1.43,6.04,8.51,13.15,8.03,26.13,123.43,39170000000.0,39170000000.0,17.81,2.60,1.64,10.83,1.64,5600000000.0,10.83,2040000000.0,10.36,9.10,0.10,1290000000.0,7.08,6530000000.0,1.16,31.16,2020000000.0,0.82,0.59,86.00,2180000.0,1.87,1.12,2460000.0,N/A
214,N/A,N/A,nov,N/A,N/A,N/A,N/A,N/A,21.88,8.91,0.65,0.64,7.60,13.04,4.53,6.79,44.25,13390000000.0,13390000000.0,21.08,0.36,0.75,4.35,0.75,5810000000.0,4.35,1350000000.0,3.36,77.80,40.80,1850000000.0,4.91,3980000000.0,2.49,48.24,1450000000.0,1.62,0.14,93.40,39970000.0,7.70,10.15,39110000.0,N/A
215,N/A,N/A,nsc,N/A,N/A,N/A,N/A,N/A,80.60,14.05,2.14,1.92,15.71,29.24,5.95,13.89,35.66,32570000000.0,32570000000.0,13.67,18.63,3.00,7.83,3.00,7420000000.0,7.83,1700000000.0,5.54,19.10,10.30,433000000.0,1.45,9780000000.0,0.85,40.62,2680000000.0,1.11,0.30,69.80,5370000.0,1.71,1.65,6210000.0,N/A
216,N/A,N/A,ntap,N/A,N/A,N/A,N/A,N/A,49.85,17.84,1.16,2.28,6.74,8.88,3.66,12.28,19.28,3400000000.0,3400000000.0,8.81,0.86,0.58,5.12,0.58,3830000000.0,5.12,395900000.0,1.29,28.70,6.40,4810000000.0,16.47,1490000000.0,2.48,10.23,945100000.0,0.89,0.08,97.20,13570000.0,3.77,5.84,14340000.0,N/A
217,N/A,N/A,nue,N/A,N/A,N/A,N/A,N/A,55.13,18.65,0.66,1.55,3.50,6.82,4.98,9.42,56.13,14090000000.0,14090000000.0,15.98,2.24,0.78,7.28,0.78,1910000000.0,7.28,627950000.0,1.95,7.50,25.90,2000000000.0,6.24,4440000000.0,3.50,24.12,2170000000.0,1.37,4.02,74.60,7010000.0,3.62,2.20,6440000.0,N/A
218,N/A,N/A,nus,N/A,N/A,N/A,N/A,N/A,29.40,13.82,0.85,2.27,6.29,12.01,10.97,15.97,39.00,1840000000.0,1840000000.0,10.16,3.95,0.80,5.36,0.80,2090000000.0,5.36,143710000.0,2.40,76.20,10.60,316690000.0,5.53,252960000.0,1.89,14.97,336760000.0,1.49,2.26,78.90,10840000.0,11.80,18.81,10050000.0,N/A
219,N/A,N/A,nvda,N/A,N/A,N/A,N/A,N/A,31.80,27.69,3.35,3.65,12.34,18.07,7.81,13.83,8.93,12630000000.0,12630000000.0,21.79,6.28,2.60,11.66,2.60,2600000000.0,11.66,599590000.0,1.07,42.20,6.50,4730000000.0,8.79,1420000000.0,6.82,8.30,1110000000.0,0.81,5.25,87.50,43080000.0,6.12,9.88,40460000.0,N/A
220,N/A,N/A,nwl,N/A,N/A,N/A,N/A,N/A,153.26,27.60,1.83,6.04,6.61,14.00,7.83,20.34,21.75,12990000000.0,12990000000.0,16.34,1.90,2.21,13.11,2.21,2200000000.0,13.11,388400000.0,1.43,9.70,3.10,266200000.0,1.00,2740000000.0,1.21,6.68,578900000.0,0.96,0.56,92.60,8090000.0,1.87,3.38,12380000.0,N/A
221,N/A,N/A,oke,N/A,N/A,N/A,N/A,N/A,216.37,15.43,0.55,11.50,3.62,12.18,4.43,15.71,41.32,13520000000.0,13520000000.0,13.32,2.74,1.56,9.67,1.56,2110000000.0,9.67,317350000.0,1.49,27.50,39.10,38370000.0,0.18,8740000000.0,0.49,1.98,1110000000.0,1.39,0.96,75.30,8650000.0,2.59,4.19,8090000.0,N/A
222,N/A,N/A,omc,N/A,N/A,N/A,N/A,N/A,150.26,16.03,1.13,6.89,7.19,12.74,5.98,35.74,61.76,20130000000.0,20130000000.0,14.84,2.81,1.33,9.04,1.33,15320000000.0,9.04,1080000000.0,4.36,1.80,1.10,1430000000.0,5.90,4630000000.0,0.83,10.23,1880000000.0,1.37,0.69,99.20,16960000.0,9.47,6.94,17050000.0,N/A
223,N/A,N/A,orcl,N/A,N/A,N/A,N/A,N/A,90.52,16.71,3.93,3.21,24.55,35.95,8.22,19.51,8.66,1.3518e+11,1.3518e+11,12.24,1.68,3.61,8.88,3.61,30690000000.0,8.88,9200000000.0,2.07,12.20,6.30,52340000000.0,12.46,41940000000.0,4.26,10.91,12900000000.0,1.16,26.17,61.50,34490000.0,2.31,1.10,37280000.0,N/A
224,N/A,N/A,orly,N/A,N/A,N/A,N/A,N/A,69.78,26.87,3.04,11.84,11.49,18.93,13.90,44.96,77.24,24270000000.0,24270000000.0,22.63,1.49,3.12,14.39,3.12,3710000000.0,14.39,894320000.0,8.73,22.70,10.80,276920000.0,2.81,1400000000.0,1.02,20.28,1270000000.0,0.84,2.73,91.90,5330000.0,6.54,5.38,5200000.0,N/A
225,N/A,N/A,pbi,N/A,N/A,N/A,N/A,N/A,682.52,9.87,1.06,27.06,10.60,18.16,6.55,78.88,18.04,5930000000.0,5930000000.0,9.23,10.68,1.64,7.06,1.64,2140000000.0,7.06,381160000.0,1.90,32.50,7.70,750290000.0,3.81,2990000000.0,0.99,0.72,608810000.0,1.22,0.28,90.10,15330000.0,9.83,9.57,15580000.0,N/A
226,N/A,N/A,pcar,N/A,N/A,N/A,N/A,N/A,119.03,9.75,0.81,2.20,8.31,12.11,7.07,22.76,56.00,21280000000.0,21280000000.0,10.95,2.13,1.07,7.44,1.07,3050000000.0,7.44,1650000000.0,4.64,16.10,1.60,3450000000.0,9.76,8740000000.0,5.27,20.77,2370000000.0,1.35,2.41,64.10,7.08,7.08,5.19,0.96,N/A
227,N/A,N/A,pcg,N/A,N/A,N/A,N/A,N/A,97.66,28.75,1.52,1.55,5.13,9.01,1.60,5.30,35.42,41810000000.0,41810000000.0,13.88,2.95,2.46,10.12,2.46,4880000000.0,10.12,871000000.0,1.81,62.10,7.90,154000000.0,0.31,16430000000.0,1.00,33.80,3660000000.0,0.24,0.10,79.90,5390000.0,2.13,2.53,5470000.0,N/A
228,N/A,N/A,pcln,N/A,N/A,N/A,N/A,N/A,63.84,23.75,6.41,6.87,27.57,34.91,12.44,28.96,175.76,58990000000.0,58990000000.0,16.59,1.30,6.51,17.16,6.51,7580000000.0,17.16,2500000000.0,47.87,12.70,9.40,3050000000.0,61.32,5440000000.0,2.72,169.93,2980000000.0,1.51,0.36,97.20,1260000.0,2.00,2.45,1130000.0,N/A
229,N/A,N/A,pcp,N/A,N/A,N/A,N/A,N/A,43.44,24.62,3.31,2.78,13.68,24.25,7.37,11.57,69.29,36300000000.0,36300000000.0,16.88,1.29,3.76,13.54,3.76,3250000000.0,13.54,1340000000.0,9.43,26.60,9.30,632000000.0,4.59,5000000000.0,3.06,83.41,1670000000.0,0.44,0.22,92.10,2100000.0,2.67,1.74,2080000.0,N/A
230,N/A,N/A,pdco,N/A,N/A,N/A,N/A,N/A,83.02,22.88,0.86,3.14,3.69,7.93,7.84,14.57,50.43,5210000000.0,5210000000.0,15.41,1.74,1.05,11.23,1.05,1240000000.0,11.23,205950000.0,1.85,34.10,42.00,95450000.0,0.97,1130000000.0,2.09,13.84,111340000.0,0.93,16.04,76.30,6750000.0,7.86,7.75,6650000.0,N/A
231,N/A,N/A,peg,N/A,N/A,N/A,N/A,N/A,71.58,10.56,1.80,1.52,16.92,28.25,5.46,14.76,21.59,28500000000.0,28500000000.0,13.11,9.57,2.61,6.25,2.61,3850000000.0,6.25,1850000000.0,3.64,1.10,1.80,282000000.0,0.56,9260000000.0,0.89,25.59,3850000000.0,0.40,0.14,68.50,10800000.0,3.46,2.14,11680000.0,N/A
232,N/A,N/A,pep,N/A,N/A,N/A,N/A,N/A,237.06,28.85,2.21,10.49,7.83,15.26,8.17,27.71,43.56,1.6313e+11,1.6313e+11,20.08,3.42,2.53,13.48,2.53,35800000000.0,13.48,5040000000.0,3.37,73.50,5.20,10680000000.0,7.33,32189999999.999996,1.20,9.31,10590000000.0,0.77,0.22,71.40,7330000.0,1.69,0.50,8720000.0,N/A
233,N/A,N/A,pfe,N/A,N/A,N/A,N/A,N/A,58.18,23.27,4.04,2.90,17.45,30.29,5.30,11.55,7.72,2.0984e+11,2.0984e+11,13.14,3.23,4.38,10.77,4.38,40030000000.0,10.77,8370000000.0,1.33,20.10,2.20,20660000000.0,3.35,39050000000.0,1.62,10.82,15200000000.0,1.07,0.04,72.00,85660000.0,1.77,1.40,65519999.99999999,N/A
234,N/A,N/A,pfg,N/A,N/A,N/A,N/A,N/A,40.80,9.79,0.98,1.23,10.44,13.39,0.47,12.63,40.93,11030000000.0,11030000000.0,9.12,1.50,0.91,6.09,0.91,5250000000.0,6.09,1230000000.0,4.10,20.70,30.50,4710000000.0,16.08,3980000000.0,5.93,32.78,4230000000.0,1.74,0.36,68.80,4950000.0,3.24,1.69,4730000.0,N/A
235,N/A,N/A,pg,N/A,N/A,N/A,N/A,N/A,48.43,28.59,2.84,3.43,10.33,20.45,7.08,13.86,27.28,2.2593e+11,2.2593e+11,17.96,2.46,3.05,12.41,3.05,37400000000.0,12.41,8620000000.0,2.66,30.70,12.00,12610000000.0,4.63,30490000000.0,1.13,22.50,14510000000.0,0.89,0.07,30.50,25020000.0,2.81,0.92,23860000.0,N/A
236,N/A,N/A,pgr,N/A,N/A,N/A,N/A,N/A,34.42,13.60,0.87,2.39,6.34,10.08,4.65,17.80,35.14,17980000000.0,17980000000.0,15.19,1.94,0.87,8.14,0.87,2090000000.0,8.14,1310000000.0,2.21,6.00,10.50,2330000000.0,3.98,2720000000.0,0.89,12.76,2230000000.0,0.88,2.49,82.60,16360000.0,4.94,2.80,15100000.0,N/A
237,N/A,N/A,ph,N/A,N/A,N/A,N/A,N/A,69.13,13.86,1.02,2.58,7.53,11.80,7.34,16.22,87.97,13880000000.0,13880000000.0,13.30,1.94,1.13,7.86,1.13,3060000000.0,7.86,927030000.0,6.53,30.40,12.30,1790000000.0,13.16,3360000000.0,2.09,35.68,1050000000.0,1.50,1.04,92.90,8039999.999999999,7.17,5.88,7730000.0,N/A
238,N/A,N/A,phm,N/A,N/A,N/A,N/A,N/A,49.54,11.96,0.99,1.24,8.41,12.35,5.09,10.41,16.05,7070000000.0,7070000000.0,10.26,1.47,1.23,9.38,1.23,1380000000.0,9.38,479930000.0,1.33,23.30,5.50,745280000.0,2.13,2260000000.0,2.71,13.09,139400000.0,1.10,9.47,87.50,14370000.0,3.11,3.95,14060000.0,N/A
239,N/A,N/A,pki,N/A,N/A,N/A,N/A,N/A,50.06,31.92,2.48,2.73,7.73,10.68,3.81,8.53,20.08,6350000000.0,6350000000.0,17.37,2.14,2.81,17.89,2.81,1000000000.0,17.89,175520000.0,1.55,29.80,3.90,195070000.0,1.74,1030000000.0,1.94,18.36,258420000.0,0.60,0.92,96.30,2630000.0,3.46,2.70,2880000.0,N/A
240,N/A,N/A,pnw,N/A,N/A,N/A,N/A,N/A,77.76,17.76,2.05,1.54,11.51,23.08,3.49,8.90,31.44,10810000000.0,10810000000.0,15.97,3.41,3.10,7.96,3.10,1400000000.0,7.96,401550000.0,3.60,5.40,2.30,13010000.0,0.12,3730000000.0,0.70,41.98,1030000000.0,0.44,0.47,80.70,1870000.0,1.56,1.69,2069999.9999999998,N/A
241,N/A,N/A,pom,N/A,N/A,N/A,N/A,N/A,142.82,28.02,1.30,1.49,4.65,12.46,2.44,5.15,19.77,12730000000.0,12730000000.0,22.20,5.31,2.55,10.14,2.55,1670000000.0,10.14,232000000.0,0.92,15.20,3.70,271000000.0,1.07,6470000000.0,0.66,17.15,706000000.0,0.69,0.30,64.70,6690000.0,3.43,2.65,9100000.0,N/A
242,N/A,N/A,ppg,N/A,N/A,N/A,N/A,N/A,87.61,22.21,1.67,5.02,7.66,13.10,7.25,21.03,56.26,28580000000.0,28580000000.0,14.76,1.40,1.86,11.42,1.86,6570000000.0,11.42,1180000000.0,4.26,16.70,1.60,1420000000.0,5.27,4550000000.0,1.53,18.98,1480000000.0,1.66,0.38,73.90,2100000.0,1.45,0.77,2530000.0,N/A
243,N/A,N/A,ppl,N/A,N/A,N/A,N/A,N/A,194.93,23.03,1.97,2.20,8.52,29.39,4.83,14.48,17.19,41410000000.0,41410000000.0,14.39,4.04,3.61,8.62,3.61,7670000000.0,8.62,1740000000.0,1.45,20.90,0.10,982000000.0,1.46,19930000000.0,0.67,15.22,2810000000.0,0.49,0.03,48.00,11790000.0,2.54,1.78,12670000.0,N/A
244,N/A,N/A,prgo,N/A,N/A,N/A,N/A,N/A,50.08,138.88,4.23,1.97,2.89,17.01,3.17,1.48,35.09,25450000000.0,25450000000.0,14.69,1.30,5.09,17.58,5.09,1710000000.0,17.58,144300000.0,1.01,16.90,41.30,523000000.0,3.57,5380000000.0,1.73,73.31,1140000000.0,0.66,0.47,46.40,3890000.0,1.88,2.77,2890000.0,N/A
245,N/A,N/A,pru,N/A,N/A,N/A,N/A,N/A,106.24,9.82,0.53,0.78,5.47,15.29,0.79,8.27,138.87,15610000000.0,15610000000.0,7.18,0.87,0.25,1.57,0.25,20540000000.0,1.57,3410000000.0,7.44,186.10,8.80,62630000000.0,139.48,45440000000.0,1.68,95.06,19800000000.0,1.37,0.18,65.80,4030000.0000000005,1.89,0.89,4570000.0,N/A
246,N/A,N/A,psa,N/A,N/A,N/A,N/A,N/A,0.60,41.48,17.72,8.45,53.20,52.59,8.30,13.99,14.10,46360000000.0,46360000000.0,25.62,4.73,19.05,27.11,19.05,1580000000.0,27.11,1030000000.0,5.96,15.70,8.60,35670000.0,0.21,55720000.0,0.12,29.49,1750000000.0,0.34,15.12,79.70,3.27,3.27,2.06,2610000.0,N/A
247,N/A,N/A,psx,N/A,N/A,N/A,N/A,N/A,37.25,8.78,0.42,1.76,4.81,4.83,5.98,20.65,179.44,44250000000.0,44250000000.0,10.32,1.32,0.45,7.62,0.45,21030000000.0,7.62,4720000000.0,8.56,33.70,39.20,4820000000.0,9.04,8950000000.0,1.70,43.48,5090000000.0,1.49,10.84,68.00,9550000.0,3.10,1.76,9800000.0,N/A
248,N/A,N/A,pwr,N/A,N/A,N/A,N/A,N/A,10.94,10.30,0.39,0.97,4.90,5.04,4.24,5.89,37.21,3290000000.0,3290000000.0,10.81,3.19,0.42,5.43,0.42,1230000000.0,5.43,211400000.0,1.82,128.60,9.60,49190000.0,0.31,350560000.0,1.76,19.53,690290000.0,0.68,0.73,90.90,16090000.0,4.64,7.90,16980000.0,N/A
249,N/A,N/A,px,N/A,N/A,N/A,N/A,N/A,197.74,19.95,2.49,6.53,12.77,22.48,8.08,24.67,38.74,37250000000.0,37250000000.0,15.99,6.27,3.34,10.25,3.34,5310000000.0,10.25,1430000000.0,4.90,15.90,14.60,136000000.0,0.48,9520000000.0,1.29,14.97,2660000000.0,1.01,0.14,3.20,8300000.000000001,4.40,2.88,7960000.0,N/A
250,N/A,N/A,qcom,N/A,N/A,N/A,N/A,N/A,34.92,14.25,2.74,2.24,20.85,29.49,9.38,14.93,15.63,62610000000.0,62610000000.0,9.32,0.96,2.48,7.22,2.48,14900000000.0,7.22,5270000000.0,3.22,43.90,18.50,17320000000.0,11.52,10970000000.0,3.62,20.62,5510000000.0,1.45,0.17,82.10,15840000.0,0.95,0.96,16700000.0,N/A
251,N/A,N/A,r,N/A,N/A,N/A,N/A,N/A,279.23,11.24,0.42,1.42,3.66,9.79,3.93,12.29,124.41,8080000000.0,8080000000.0,7.52,1.14,1.23,4.63,1.23,1380000000.0,4.63,241140000.0,4.50,8.40,1.10,75390000.0,1.41,5450000000.0,0.82,36.54,1460000000.0,1.60,0.92,99.10,2950000.0,3.30,5.57,3190000.0,N/A
252,N/A,N/A,rai,N/A,N/A,N/A,N/A,N/A,97.04,17.77,6.92,3.65,32.00,34.78,6.14,26.60,8.32,82080000000.0,82080000000.0,20.22,1.78,8.41,23.47,8.41,4410000000.0,23.47,3120000000.0,2.65,40.70,41.10,3180000000.0,2.23,17930000000.0,1.13,12.93,30000000.0,0.87,42.21,47.90,14950000.0,3.05,2.43,14980000.0,N/A
253,N/A,N/A,rhi,N/A,N/A,N/A,N/A,N/A,0.12,16.78,1.18,5.86,6.95,11.36,21.30,35.21,37.81,5500000000.0,5500000000.0,14.17,1.08,1.10,8.84,1.10,1920000000.0,8.84,348410000.0,2.61,13.50,7.20,251820000.0,1.92,1200000.0,2.08,7.67,403120000.0,1.01,3.28,89.90,1280000.0,1.13,0.98,1500000.0,N/A
254,N/A,N/A,rht,N/A,N/A,N/A,N/A,N/A,54.23,76.84,7.37,10.81,9.84,14.59,4.83,15.05,10.77,14070000000.0,14070000000.0,36.14,2.53,7.13,38.64,7.13,1520000000.0,38.64,194030000.0,1.03,2.30,14.80,1140000000.0,6.21,729280000.0,1.35,7.36,686020000.0,0.89,0.56,98.00,5760000.0,3.91,3.79,5450000.0,N/A
255,N/A,N/A,rl,N/A,N/A,N/A,N/A,N/A,26.79,16.13,1.18,2.32,7.50,12.30,8.99,14.36,86.38,8670000000.0,8670000000.0,13.25,2.07,1.16,7.06,1.16,4380000000.0,7.06,563000000.0,6.42,20.40,1.20,1130000000.0,13.30,1020000000.0,2.80,44.99,985000000.0,0.69,0.39,98.50,6210000.0,5.78,10.42,5230000.0,N/A
256,N/A,N/A,rok,N/A,N/A,N/A,N/A,N/A,66.51,15.35,1.96,5.48,13.12,18.38,11.48,33.68,46.90,11690000000.0,11690000000.0,14.36,3.00,1.85,8.91,1.85,2700000000.0,8.91,826900000.0,6.09,19.10,9.80,2150000000.0,16.28,1500000000.0,3.05,17.05,1190000000.0,1.25,0.51,78.70,7560000.0,6.89,5.76,7190000.0,N/A
257,N/A,N/A,rost,N/A,N/A,N/A,N/A,N/A,16.54,21.27,1.86,9.09,8.57,13.73,21.02,43.88,28.88,21010000000.0,21010000000.0,18.95,1.91,1.79,11.21,1.79,3100000000.0,11.21,1010000000.0,2.45,11.90,7.10,487120000.0,1.20,395910000.0,1.39,5.91,1150000000.0,1.27,2.26,91.70,10560000.0,2.91,2.62,10900000.0,N/A
258,N/A,N/A,rsg,N/A,N/A,N/A,N/A,N/A,96.91,24.86,1.70,1.97,6.95,15.04,4.17,7.99,25.69,22780000000.0,22780000000.0,20.43,4.26,2.52,9.52,2.52,3160000000.0,9.52,628000000.0,1.78,15.70,3.40,102500000.0,0.30,7560000000.0,0.76,22.43,1750000000.0,0.70,31.30,64.60,8570000.0,4.74,3.52,9030000.0,N/A
259,N/A,N/A,rtn,N/A,N/A,N/A,N/A,N/A,49.89,17.93,1.61,3.65,9.04,12.59,6.53,18.37,76.46,38940000000.0,38940000000.0,17.23,2.71,1.69,11.84,1.69,5530000000.0,11.84,2040000000.0,6.79,13.20,5.60,3060000000.0,10.17,5330000000.0,1.51,33.71,2450000000.0,0.70,0.38,79.60,2830000.0,1.56,0.93,3000000.0,N/A
260,N/A,N/A,sbux,N/A,N/A,N/A,N/A,N/A,40.95,31.12,4.39,14.47,14.39,17.55,18.12,49.75,12.81,84860000000.0,84860000000.0,25.98,1.67,4.43,19.75,4.43,11380000000.0,19.75,2760000000.0,1.82,11.00,17.60,1610000000.0,1.09,2380000000.0,1.19,3.92,3750000000.0,0.83,2.79,72.60,9570000.0,1.20,0.68,9870000.0,N/A
261,N/A,N/A,scg,N/A,N/A,N/A,N/A,N/A,121.55,11.52,1.88,1.61,16.24,23.61,4.23,14.53,32.46,15310000000.0,15310000000.0,15.29,3.56,3.30,10.00,3.30,1620000000.0,10.00,753000000.0,5.27,3.50,4.70,54000000.0,0.38,6590000000.0,0.94,37.92,979000000.0,0.34,9.28,59.20,7020000.0,7.80,5.42,6800000.0,N/A
262,N/A,N/A,schl,N/A,N/A,N/A,N/A,N/A,1.68,4.68,0.79,1.04,16.94,3.52,2.06,1.65,48.79,954360000.0,954360000.0,19.64,2.94,0.59,11.46,0.59,877300000.0,11.46,18000000.0,8.06,5.30,1.50,360900000.0,10.52,21000000.0,2.22,36.37,102000000.0,0.50,12.57,87.70,2290000.0,14.23,15.61,2240000.0,N/A
263,N/A,N/A,se,N/A,N/A,N/A,N/A,N/A,143.66,21.57,2.99,2.29,14.05,34.45,3.53,9.74,8.22,30930000000.0,30930000000.0,18.65,4.20,5.61,11.53,5.61,3110000000.0,11.53,775000000.0,1.15,13.40,8.60,353000000.0,0.53,14640000000.0,0.54,10.75,2500000000.0,1.01,0.16,74.60,3.92,3.92,4.24,28410000.0,N/A
264,N/A,N/A,see,N/A,N/A,N/A,N/A,N/A,052.06,31.34,1.13,18.53,3.84,12.23,6.96,31.45,34.97,12480000000.0,12480000000.0,16.03,1.13,1.72,11.24,1.72,2690000000.0,11.24,276200000.0,1.32,42.40,11.60,334300000.0,1.69,4650000000.0,1.25,2.24,941500000.0,1.39,0.56,96.00,3860000.0,2.26,1.84,4680000.0,N/A
265,N/A,N/A,shw,N/A,N/A,N/A,N/A,N/A,200.80,23.28,1.97,22.82,8.74,13.11,14.92,84.93,121.64,24420000000.0,24420000000.0,18.95,1.21,2.16,14.53,2.16,5160000000.0,14.53,984240000.0,10.39,14.80,0.10,91030000.0,0.99,1960000000.0,1.27,10.59,1100000000.0,1.28,17.39,68.40,1330000.0,2.10,1.85,1710000.0,N/A
266,N/A,N/A,siri,N/A,N/A,N/A,N/A,N/A,875.04,42.81,4.48,320.00,11.61,29.01,9.76,83.97,0.82,25110000000.0,25110000000.0,25.40,1.70,5.62,16.06,5.62,2080000000.0,16.06,518210000.0,0.09,22.30,10.70,152540000.0,0.03,5410000000.0,0.59,0.01,1270000000.0,0.98,59.99,23.80,155700000.0,6.39,6.72,149140000.0,N/A
267,N/A,N/A,sjm,N/A,N/A,N/A,N/A,N/A,81.08,35.27,2.08,1.99,5.54,15.38,5.11,6.18,61.72,20090000000.0,20090000000.0,18.67,2.61,2.91,14.13,2.91,1970000000.0,14.13,381300000.0,3.40,11.20,40.20,139000000.0,1.16,5860000000.0,1.77,60.44,1230000000.0,0.73,7.33,64.60,3720000.0,3.35,3.78,4000000.0,N/A
268,N/A,N/A,slb,N/A,N/A,N/A,N/A,N/A,32.14,24.65,2.07,2.20,8.40,17.41,6.67,8.73,31.73,87740000000.0,87740000000.0,25.52,1.46,2.17,7.83,2.17,11180000000.0,7.83,3390000000.0,2.64,49.30,33.00,6600000000.0,5.24,12270000000.0,1.54,30.09,10310000000.0,1.34,0.06,78.00,42780000.0,5.49,3.35,43260000.0,N/A
269,N/A,N/A,sna,N/A,N/A,N/A,N/A,N/A,39.42,20.73,2.65,4.04,12.89,20.74,10.64,20.32,61.91,10260000000.0,10260000000.0,18.00,2.04,2.85,12.61,2.85,1730000000.0,12.61,463500000.0,7.84,12.60,2.60,118700000.0,2.04,937700000.0,2.49,40.66,449300000.0,1.14,0.81,85.90,1390000.0,3.79,2.41,1300000.0,N/A
270,N/A,N/A,sndk,N/A,N/A,N/A,N/A,N/A,37.94,35.86,2.61,2.67,7.90,14.76,5.37,7.25,27.46,15330000000.0,15330000000.0,19.95,11.14,2.66,10.39,2.66,3070000000.0,10.39,454900000.0,2.07,49.40,16.80,1700000000.0,8.46,2140000000.0000002,3.17,28.07,1100000000.0,2.51,10.74,86.20,14890000.0,8.18,7.12,16020000.0,N/A
271,N/A,N/A,sni,N/A,N/A,N/A,N/A,N/A,223.35,12.36,2.36,4.53,20.24,40.57,13.50,38.32,21.55,10790000000.0,10790000000.0,11.23,1.05,3.81,8.44,3.81,1890000000.0,8.44,573970000.0,4.33,5.20,20.40,247350000.0,1.92,4150000000.0000005,3.31,11.51,855920000.0,1.70,21.54,96.70,11860000.0,8.73,13.92,11940000.0,N/A
272,N/A,N/A,so,N/A,N/A,N/A,N/A,N/A,123.02,17.83,2.38,2.07,13.26,23.84,3.74,11.05,19.73,69500000000.0,69500000000.0,15.80,4.37,3.87,10.60,3.87,7440000000.0,10.60,2380000000.0,2.61,33.60,1.20,1120000000.0,1.23,27160000000.0,0.65,22.73,6220000000.0,0.15,0.03,51.70,23310000.0,5.71,2.58,19710000.0,N/A
273,N/A,N/A,spg,N/A,N/A,N/A,N/A,N/A,439.75,34.85,11.64,13.63,32.66,49.59,5.24,35.31,16.41,80100000000.0,80100000000.0,17.10,2.18,15.72,21.31,15.72,3990000000.0,21.31,1660000000.0,5.34,66.50,6.90,856860000.0,2.77,22630000000.0,0.42,14.05,3020000000.0,0.46,0.72,98.60,3850000.0,2.90,1.43,4600000.0,N/A
274,N/A,N/A,spls,N/A,N/A,N/A,N/A,N/A,19.36,194.08,0.29,1.18,0.15,4.38,5.43,0.57,33.51,6370000000.0,6370000000.0,10.45,7.72,0.30,4.58,0.30,5800000000.0,4.58,32530000.0,0.05,8.80,6.20,782000000.0,1.22,1040000000.0,1.64,8.30,837940000.0,1.59,0.70,97.10,24410000.0,1.80,3.84,28610000.0,N/A
275,N/A,N/A,sre,N/A,N/A,N/A,N/A,N/A,119.33,17.26,2.10,1.86,12.43,17.70,2.86,11.24,41.49,35910000000.0,35910000000.0,16.48,1.86,3.49,11.84,3.49,3350000000.0,11.84,1280000000.0,5.09,28.70,11.90,704000000.0,2.83,14790000000.0,0.71,46.79,2590000000.0,0.71,5.33,75.30,3030000.0,2.70,1.30,3860000.0,N/A
276,N/A,N/A,stj,N/A,N/A,N/A,N/A,N/A,126.60,16.52,2.98,4.13,18.29,24.44,7.91,24.34,19.54,18950000000.0,18950000000.0,13.78,1.47,3.43,11.40,3.43,3970000000.0,11.40,1010000000.0,3.52,9.70,2.40,2550000000.0,9.01,5060000000.0,1.75,14.15,1250000000.0,1.11,2.44,86.30,5480000.0,3.64,2.28,5520000.0,N/A
277,N/A,N/A,stx,N/A,N/A,N/A,N/A,N/A,215.40,7.56,0.80,5.37,10.83,8.95,7.65,57.31,40.53,11950000000.0,11950000000.0,7.71,1.48,0.93,6.02,0.93,3810000000.0,6.02,1400000000.0,4.31,91.10,22.70,1920000000.0,6.42,4139999999.9999995,1.80,6.43,2870000000.0,1.12,11.39,88.70,29120000.0,7.43,11.11,26880000.0,N/A
278,N/A,N/A,syk,N/A,N/A,N/A,N/A,N/A,41.14,28.64,3.37,3.91,11.95,22.94,8.45,13.76,26.08,33120000000.0,33120000000.0,15.69,1.87,3.36,12.53,3.36,6380000000.0,12.53,1180000000.0,3.07,428.10,1.30,3370000000.0,8.99,3490000000.0,2.26,22.59,907000000.0,1.00,8.29,76.00,3.05,3.05,1.42,4820000.0,N/A
279,N/A,N/A,symc,N/A,N/A,N/A,N/A,N/A,29.53,21.10,2.25,2.37,10.91,21.45,6.51,11.38,8.99,12220000000.0,12220000000.0,18.46,2.88,1.99,7.05,1.99,5360000000.0,7.05,671000000.0,0.97,36.10,7.40,3360000000.0,4.97,1740000000.0,1.25,8.66,1280000000.0,1.15,0.23,93.60,15530000.0,2.29,2.59,18910000.0,N/A
280,N/A,N/A,syy,N/A,N/A,N/A,N/A,N/A,57.73,36.45,0.46,4.47,1.34,3.67,8.29,12.19,82.13,25170000000.0,25170000000.0,18.77,2.50,0.52,10.74,0.52,8550000000.0,10.74,652380000.0,1.09,12.30,0.90,388260000.0,0.69,3090000000.0,1.77,8.90,1230000000.0,0.43,7.16,76.70,34310000.0,8.28,6.20,39320000.0,N/A
281,N/A,N/A,t,N/A,N/A,N/A,N/A,N/A,105.98,35.27,1.48,1.69,3.68,11.03,2.79,5.06,25.84,3.2987e+11,3.2987e+11,11.94,2.12,2.37,9.72,2.37,71840000000.0,9.72,5120000000.0,0.95,4.30,18.60,6600000000.0,1.07,130130000000.0,0.73,19.80,32440000000.0,0.46,0.05,63.20,99600000.0,4.29,1.92,108440000.0,N/A
282,N/A,N/A,te,N/A,N/A,N/A,N/A,N/A,155.33,46.89,2.29,2.47,4.84,19.84,3.92,8.43,11.88,10200000000.0,10200000000.0,22.42,3.58,3.69,11.38,3.69,1020000000.0,11.38,216900000.0,0.57,379.30,1.00,55400000.0,0.24,3980000000.0,0.64,10.89,638000000.0,0.39,1.20,60.00,4330000.0,3.21,1.86,5640000.0,N/A
283,N/A,N/A,tel,N/A,N/A,N/A,N/A,N/A,40.72,9.88,1.86,2.42,19.78,16.30,6.12,13.31,30.21,23040000000.0,23040000000.0,12.92,0.98,1.88,8.83,1.88,4090000000.0,8.83,1240000000.0,5.89,56.90,2.90,3330000000.0,8.62,3900000000.0,2.21,24.33,1910000000.0,0.88,0.22,93.60,2730000.0,1.14,0.67,3060000.0,N/A
284,N/A,N/A,tif,N/A,N/A,N/A,N/A,N/A,37.58,17.81,2.18,3.19,11.90,19.48,10.01,17.19,32.36,9110000000.0,9110000000.0,15.73,1.95,2.18,8.99,2.18,2540000000.0,8.99,496880000.0,3.83,137.60,2.20,725100000.0,5.66,1080000000.0,5.06,22.25,864820000.0,1.87,13.20,80.90,10070000.0,4.42,8.96,10220000.0,N/A
285,N/A,N/A,tjx,N/A,N/A,N/A,N/A,N/A,37.33,20.38,1.55,10.77,7.46,12.11,19.43,51.80,44.64,44310000000.0,44310000000.0,18.54,1.88,1.46,10.38,1.46,8300000000.0,10.38,2260000000.0,3.28,1.30,5.30,2120000000.0,3.17,1620000000.0,1.55,6.50,2840000000.0,0.75,0.54,91.20,7870000.0,1.79,1.16,7790000.0,N/A
286,N/A,N/A,tmk,N/A,N/A,N/A,N/A,N/A,31.79,12.91,1.68,1.59,13.42,21.15,2.66,12.28,31.88,7950000000.0,7950000000.0,12.26,1.82,1.97,9.24,1.97,1750000000.0,9.24,540890000.0,4.21,9.80,2.50,123150000.0,1.00,1360000000.0,0.40,34.62,950200000.0,0.97,1.99,78.40,5.87,5.87,2.85,3570000.0,N/A
287,N/A,N/A,tmo,N/A,N/A,N/A,N/A,N/A,63.89,27.32,3.19,2.57,11.75,14.18,3.55,9.57,42.13,66360000000.0,66360000000.0,16.36,1.93,3.95,16.34,3.95,7490000000.0,16.34,1980000000.0,4.91,1.00,1.20,503400000.0,1.26,13320000000.0,1.05,52.24,2540000000.0,1.00,0.18,89.60,3980000.0,2.38,1.00,4340000.0,N/A
288,N/A,N/A,trip,N/A,N/A,N/A,N/A,N/A,21.72,47.91,7.62,8.45,15.70,21.89,9.69,19.15,10.25,10590000000.0,10590000000.0,33.12,2.40,7.20,28.92,7.20,1210000000.0,28.92,231000000.0,1.59,37.00,17.20,686000000.0,4.76,288000000.0,2.65,9.20,368000000.0,2.95,19.44,91.80,15690000.0,10.05,15.79,15580000.0,N/A
289,N/A,N/A,trv,N/A,N/A,N/A,N/A,N/A,28.06,9.49,1.20,1.35,13.42,19.92,3.24,14.63,84.79,33620000000.0,33620000000.0,10.82,2.19,1.25,5.43,1.25,13290000000.0,5.43,3580000000.0,11.17,1.00,1.30,5470000000.0,17.99,6740000000.0,0.40,79.00,3200000000.0,1.27,0.45,84.30,8050000.000000001,4.47,2.53,8790000.0,N/A
290,N/A,N/A,tsn,N/A,N/A,N/A,N/A,N/A,69.29,17.73,0.51,2.16,2.95,5.79,6.38,13.15,102.16,26990000000.0,26990000000.0,13.24,1.18,0.65,8.71,0.65,3920000000.0,8.71,1220000000.0,2.95,88.30,4.00,690000000.0,1.72,6720000000.0,1.52,24.18,2570000000.0,0.46,1.72,92.00,27880000.0,3.93,9.61,30350000.0,N/A
291,N/A,N/A,tso,N/A,N/A,N/A,N/A,N/A,48.31,7.87,0.43,2.44,5.38,10.08,12.40,25.74,243.34,15290000000.0,15290000000.0,10.65,0.68,0.50,4.27,0.50,4940000000.0,4.27,1660000000.0,12.91,91.70,30.90,959000000.0,7.83,3800000000.0,1.63,43.84,2160000000.0,1.63,6.17,86.40,6690000.0,3.53,5.36,6750000.0,N/A
292,N/A,N/A,tss,N/A,N/A,N/A,N/A,N/A,74.56,23.35,3.17,4.56,13.38,19.40,8.60,20.41,14.76,9350000000.0,9350000000.0,17.25,1.49,3.47,14.30,3.47,777980000.0,14.30,361140000.0,1.95,43.90,14.80,447850000.0,2.43,1420000000.0,2.76,10.20,630640000.0,0.98,2.38,74.50,3610000.0,2.68,2.30,2580000.0,N/A
293,N/A,N/A,twc,N/A,N/A,N/A,N/A,N/A,259.82,27.35,2.19,5.87,8.17,19.35,5.82,22.96,83.03,74050000000.0,74050000000.0,23.76,6.56,3.16,9.46,3.16,15990000000.0,9.46,1890000000.0,6.69,12.40,3.60,485000000.0,1.71,22730000000.0,0.50,30.88,6520000000.0,0.84,5.12,88.30,7350000.0,5.14,2.62,7560000.0,N/A
294,N/A,N/A,twx,N/A,N/A,N/A,N/A,N/A,96.83,16.19,1.96,2.38,12.93,25.69,7.29,14.96,34.65,78050000000.0,78050000000.0,13.53,0.99,2.73,9.73,2.73,11480000000.0,9.73,3650000000.0,4.39,7.00,5.10,1770000000.0,2.22,22930000000.0,1.45,29.45,4000000000.0,1.36,0.11,83.70,16399999.999999998,2.91,1.99,15390000.0,N/A
295,N/A,N/A,txn,N/A,N/A,N/A,N/A,N/A,41.44,18.08,4.01,5.29,22.75,32.22,15.30,29.11,12.58,52480000000.0,52480000000.0,16.96,1.85,4.01,9.83,4.01,7430000000.0,9.83,2930000000.0,2.79,3.40,2.10,2740000000.0,2.70,4130000000.0,2.92,9.78,4110000000.0,1.34,0.22,87.20,23400000.0,4.78,2.69,22550000.0,N/A
296,N/A,N/A,txt,N/A,N/A,N/A,N/A,N/A,80.32,16.00,0.80,2.30,5.02,8.20,4.70,14.80,49.03,13970000000.0,13970000000.0,13.57,1.09,1.03,8.84,1.03,2460000000.0,8.84,686000000.0,2.44,10.70,7.30,497000000.0,1.82,3770000000.0,1.91,17.15,1060000000.0,1.45,0.10,80.80,4280000.0,2.61,1.76,4660000.0,N/A
297,N/A,N/A,ua,N/A,N/A,N/A,N/A,N/A,59.15,76.69,4.56,10.96,5.82,10.40,9.56,15.39,17.16,16930000000.0,16930000000.0,55.15,3.11,4.59,35.62,4.59,1510000000.0,35.62,214680000.0,0.98,12.80,28.40,159400000.0,0.74,908070000.0,2.09,7.11,21920000.0,0.16,0.36,77.40,6.57,6.57,12.79,22910000.0,N/A
298,N/A,N/A,unh,N/A,N/A,N/A,N/A,N/A,91.61,17.48,0.73,3.23,4.16,7.70,7.30,17.84,154.03,1.2685e+11,1.2685e+11,14.27,1.34,0.86,10.16,0.86,37220000000.0,10.16,6100000000.0,6.30,0.30,26.60,9920000000.0,10.41,31780000000.0,0.68,34.75,8660000000.0,0.57,1.62,89.60,10260000.0,2.37,1.09,11040000.0,N/A
299,N/A,N/A,unm,N/A,N/A,N/A,N/A,N/A,31.89,20.68,0.71,0.87,3.48,5.69,0.61,4.15,42.64,9430000000.0,9430000000.0,7.96,1.11,0.89,13.47,0.89,2790000000.0,13.47,370100000.0,1.47,7.00,1.70,707400000.0,2.91,2740000000.0,5.15,35.25,1280000000.0,1.48,0.47,93.60,3000000.0,2.18,1.21,3200000.0,N/A
300,N/A,N/A,unp,N/A,N/A,N/A,N/A,N/A,64.66,12.74,2.74,3.04,22.35,37.38,10.00,24.13,26.01,75330000000.0,75330000000.0,12.39,1.88,3.31,7.18,3.31,17890000000.0,7.18,5090000000.0,5.80,5.10,10.00,1080000000.0,1.26,13320000000.0,1.12,24.07,7650000000.0,0.82,0.16,81.00,9000000.0,1.38,1.03,9890000.0,N/A
301,N/A,N/A,ups,N/A,N/A,N/A,N/A,N/A,751.49,20.96,1.42,42.81,6.81,10.90,10.59,104.48,64.44,90330000000.0,90330000000.0,15.84,1.74,1.55,10.77,1.55,43470000000.0,10.77,3970000000.0,4.36,3.50,0.40,5690000000.0,6.39,14640000000.0,1.14,2.16,7950000000.0,1.02,0.06,69.10,11030000.0,3.78,1.57,12660000.0,N/A
302,N/A,N/A,urbn,N/A,N/A,N/A,N/A,N/A,9.82,12.53,0.76,2.30,6.74,10.49,11.68,18.19,26.77,2520000000.0,2520000000.0,11.53,1.00,0.73,5.08,0.73,1170000000.0,5.08,231910000.0,1.78,10.30,1.30,219140000.0,1.87,115000000.0,2.24,9.64,420490000.0,0.45,26.45,80.30,10310000.0,1.85,10.63,12030000.0,N/A
303,N/A,N/A,utx,N/A,N/A,N/A,N/A,N/A,70.43,13.97,1.27,2.67,9.07,15.03,6.54,17.92,72.26,97380000000.0,97380000000.0,13.80,1.37,1.52,8.41,1.52,17650000000.0,8.41,5680000000.0,6.47,26.50,5.60,5480000000.0,6.18,22670000000.0,1.37,34.41,6060000000.0,1.16,0.13,83.20,50220000.0,9.10,6.26,56330000.0,N/A
304,N/A,N/A,var,N/A,N/A,N/A,N/A,N/A,28.73,18.72,2.40,4.40,13.28,18.25,10.16,24.65,31.09,7070000000.0,7070000000.0,15.56,2.27,2.28,11.14,2.28,1280000000.0,11.14,411480000.0,4.09,6.80,0.70,845470000.0,8.73,495950000.0,1.83,17.45,469560000.0,0.60,0.24,98.80,7260000.0,11.29,7.52,6310000.0,N/A
305,N/A,N/A,vfc,N/A,N/A,N/A,N/A,N/A,50.55,24.22,2.02,4.73,8.30,14.68,10.72,18.56,29.39,26960000000.0,26960000000.0,16.45,1.70,2.15,12.75,2.15,5990000000.0,12.75,1040000000.0,2.40,2.30,2.60,566600000.0,1.33,2710000000.0,1.77,12.58,999820000.0,0.96,0.64,85.40,9740000.0,4.00,2.30,9560000.0,N/A
306,N/A,N/A,vlo,N/A,N/A,N/A,N/A,N/A,33.75,7.18,0.36,1.63,5.00,7.77,9.98,22.95,191.29,34950000000.0,34950000000.0,8.89,0.68,0.36,3.76,0.36,12700000000.0,3.76,4840000000.0,9.51,30.00,34.40,5300000000.0,11.01,7380000000.0,2.03,44.14,6120000000.0,1.32,0.44,84.20,15210000.0,2.89,2.97,14920000.0,N/A
307,N/A,N/A,vmc,N/A,N/A,N/A,N/A,N/A,45.37,68.13,3.55,2.70,5.13,14.26,3.61,4.15,24.99,13310000000.0,13310000000.0,25.82,4.88,4.01,17.84,4.01,587580000.0,17.84,177700000.0,1.27,85.00,18.90,168680000.0,1.27,1980000000.0,2.78,32.73,391950000.0,0.87,0.30,90.20,1810000.0,1.74,1.63,2020000.0,N/A
308,N/A,N/A,vno,N/A,N/A,N/A,N/A,N/A,117.83,18.93,6.66,3.43,37.46,31.54,2.68,8.33,14.80,28250000000.0,28250000000.0,18.31,3.73,10.15,20.97,10.15,1570000000.0,20.97,515580000.0,5.08,44.70,12.70,788140000.0,4.18,10080000000.0,3.85,28.67,750270000.0,0.69,9.12,88.90,3000000.0,4.43,2.19,2820000.0,N/A
309,N/A,N/A,vtr,N/A,N/A,N/A,N/A,N/A,114.19,45.55,5.39,1.95,11.54,28.66,2.89,4.99,10.82,29940000000.0,29940000000.0,13.36,3.15,8.63,15.92,8.63,1860000000.0,15.92,463790000.0,1.23,79.10,17.30,65230000.0,0.20,11270000000.0,0.82,28.86,1360000000.0,0.14,0.48,96.30,10400000.0,3.69,3.58,10190000.0,N/A
310,N/A,N/A,vz,N/A,N/A,N/A,N/A,N/A,772.47,17.99,1.41,14.02,7.86,16.22,5.65,65.91,31.79,2.9031e+11,2.9031e+11,11.26,1.49,2.22,7.80,2.22,77150000000.0,7.80,10260000000.0,2.49,9.30,5.00,4430000000.0,1.09,112330000000.0,0.63,3.23,35900000000.0,0.67,0.01,64.50,44470000.0,3.56,1.09,43500000.0,N/A
311,N/A,N/A,wat,N/A,N/A,N/A,N/A,N/A,82.81,22.60,5.16,5.34,23.01,28.16,9.12,24.63,24.58,9670000000.0,9670000000.0,19.80,2.34,4.74,14.54,4.74,1160000000.0,14.54,469290000.0,5.61,2.50,1.50,2310000000.0,28.30,1630000000.0,5.77,24.11,568360000.0,0.49,4.35,94.80,3620000.0,6.34,5.31,3360000.0,N/A
312,N/A,N/A,wdc,N/A,N/A,N/A,N/A,N/A,27.16,9.84,0.96,1.43,9.47,11.80,6.68,14.48,60.49,9940000000.0,9940000000.0,7.51,1.19,0.71,3.67,0.71,4220000000.0,3.67,1320000000.0,5.63,33.10,14.80,5430000000.0,23.43,2540000000.0,2.68,40.42,1960000000.0,0.99,2.40,77.10,12870000.0,4.04,5.59,12150000.0,N/A
313,N/A,N/A,wec,N/A,N/A,N/A,N/A,N/A,114.73,22.14,3.08,1.89,10.95,22.35,3.41,8.84,21.34,26220000000.0,26220000000.0,17.63,2.50,4.95,15.58,4.95,1630000000.0,15.58,580600000.0,2.33,44.50,64.40,22200000.0,0.07,9990000000.0,0.82,27.34,1240000000.0,0.23,0.14,62.90,7580000.0,3.71,3.37,8050000.000000001,N/A
314,N/A,N/A,wfm,N/A,N/A,N/A,N/A,N/A,1.72,21.60,0.72,3.01,3.48,6.23,10.43,14.14,42.93,10590000000.0,10590000000.0,19.74,2.74,0.69,7.58,0.69,5420000000.0,7.58,536000000.0,1.48,55.50,5.60,392000000.0,1.15,65000000.0,1.23,10.80,1130000000.0,0.84,0.81,80.80,34860000.0,4.62,9.80,36560000.0,N/A
315,N/A,N/A,whr,N/A,N/A,N/A,N/A,N/A,83.12,15.84,0.50,2.21,3.21,6.52,4.92,13.35,270.91,14710000000.0,14710000000.0,9.43,0.68,0.69,7.18,0.69,3400000000.0,7.18,684000000.0,8.56,2.20,9.40,698000000.0,8.93,4810000000.0,0.96,62.35,1450000000.0,1.81,0.75,92.90,3110000.0,3.61,4.07,3070000.0,N/A
316,N/A,N/A,wm,N/A,N/A,N/A,N/A,N/A,172.15,22.44,1.79,4.49,8.14,14.52,5.60,19.73,28.88,35700000000.0,35700000000.0,18.97,2.63,2.72,10.40,2.72,4990000000.0,10.40,1070000000.0,2.33,24.10,6.70,113000000.0,0.25,9050000000.0,0.98,11.73,2490000000.0,0.85,2.80,78.40,7120000.0,3.37,1.56,9770000.0,N/A
317,N/A,N/A,wmt,N/A,N/A,N/A,N/A,N/A,64.29,13.60,0.43,2.62,3.12,5.25,7.69,18.62,150.20,2.4958e+11,2.4958e+11,15.20,11.61,0.52,7.19,0.52,1.2056e+11,7.19,15090000000.0,4.67,11.00,1.30,6990000000.0,2.18,53120000000.0,0.92,24.79,28100000000.0,0.38,51.35,30.60,28360000.0,2.28,1.80,27790000.0,N/A
318,N/A,N/A,wu,N/A,N/A,N/A,N/A,N/A,258.60,10.43,1.56,6.40,15.36,20.57,7.21,67.04,10.66,10490000000.0,10490000000.0,9.83,1.33,1.90,7.47,1.90,2310000000.0,7.47,847000000.0,1.62,0.80,2.90,1530000000.0,3.04,3480000000.0,0.42,2.66,1070000000.0,1.16,0.11,111.30,71920000.0,16.91,15.93,68700000.0,N/A
319,N/A,N/A,wy,N/A,N/A,N/A,N/A,N/A,110.74,25.64,2.01,2.96,8.59,14.49,4.92,11.42,13.73,18600000000.0,18600000000.0,19.11,5.42,2.61,12.25,2.61,1640000000.0,12.25,569000000.0,1.09,83.60,5.00,1050000000.0,2.05,5400000000.0,2.79,9.52,1030000000.0,1.11,1.41,83.80,20170000.0,4.46,3.90,20620000.0,N/A
320,N/A,N/A,wyn,N/A,N/A,N/A,N/A,N/A,508.64,15.02,1.46,7.86,10.12,18.59,6.58,45.35,45.55,12890000000.0,12890000000.0,12.20,1.04,2.36,10.35,2.36,2780000000.0,10.35,552000000.0,4.57,7.80,3.30,259000000.0,2.23,5180000000.0,0.97,8.76,902000000.0,1.36,1.15,95.10,11160000.0,10.75,9.29,11020000.0,N/A
321,N/A,N/A,xel,N/A,N/A,N/A,N/A,N/A,125.30,18.88,1.64,1.76,8.59,17.25,3.32,9.39,22.29,31160000000.0,31160000000.0,16.30,3.72,2.76,9.85,2.76,3730000000.0,9.85,971800000.0,1.92,15.70,1.10,412710000.0,0.81,13210000000.0,1.08,20.79,3130000000.0,0.30,0.15,71.80,9720000.0,2.46,1.92,11960000.0,N/A
322,N/A,N/A,xl,N/A,N/A,N/A,N/A,N/A,19.62,9.18,1.32,0.93,13.31,16.70,1.65,9.73,30.43,8710000000.0,8710000000.0,10.72,7.18,1.04,5.94,1.04,2360000000.0,5.94,1120000000.0,3.97,62.30,66.20,4870000000.0,16.36,2730000000.0,1.47,39.88,744660000.0,0.90,0.33,96.00,4820000.0,2.51,1.89,5380000.0,N/A
323,N/A,N/A,xlnx,N/A,N/A,N/A,N/A,N/A,60.58,20.06,5.03,4.33,25.84,31.50,8.89,21.74,8.58,9310000000.0,9310000000.0,19.25,2.05,4.16,12.00,4.16,1670000000.0,12.00,578100000.0,2.14,25.80,12.70,3300000000.0,12.83,1580000000.0,4.19,10.13,773660000.0,1.31,0.32,94.40,5380000.0,2.36,2.08,5380000.0,N/A
324,N/A,N/A,xom,N/A,N/A,N/A,N/A,N/A,19.40,15.78,1.20,1.86,7.56,7.47,3.55,11.26,62.64,3.4095e+11,3.4095e+11,20.86,2.02,1.29,9.10,1.29,1.2727e+11,9.10,19940000000.0,4.73,47.50,38.00,4300000000.0,1.03,34310000000.000004,0.86,41.01,33380000000.0,1.02,0.13,50.10,54570000.0,3.48,1.30,51550000.0,N/A
325,N/A,N/A,xray,N/A,N/A,N/A,N/A,N/A,50.70,29.36,3.01,3.60,10.19,16.27,5.96,11.60,19.40,8890000000.0,8890000000.0,20.28,2.60,3.27,15.68,3.27,1600000000.0,15.68,277350000.0,1.94,12.20,8.40,236600000.0,1.69,1160000000.0,1.29,16.31,563700000.0,1.43,0.35,92.60,7610000.0,8.08,6.92,7440000.0,N/A
326,N/A,N/A,xyl,N/A,N/A,N/A,N/A,N/A,62.41,19.52,1.68,3.05,8.70,12.46,6.09,15.20,20.38,6830000000.0,6830000000.0,17.10,2.38,1.85,11.42,1.85,1510000000.0,11.42,322000000.0,1.76,17.00,6.30,611000000.0,3.41,1280000000.0,2.48,11.39,423000000.0,1.30,0.40,92.80,3330000.0,2.98,2.04,3220000.0,N/A
327,N/A,N/A,yhoo,N/A,N/A,N/A,N/A,N/A,4.31,122.52,5.76,1.01,4.90,0.55,0.04,0.77,5.26,24260000000.0,24260000000.0,53.74,1.64,4.90,50.85,4.90,3320000000.0,50.85,242250000.0,0.25,98.90,6.80,5880000000.0,6.23,1220000000.0,5.63,29.94,2380000000.0,2.05,7.87,70.60,57000000.0,3.29,6.59,52810000.0,N/A
328,N/A,N/A,yum,N/A,N/A,N/A,N/A,N/A,169.94,32.56,2.27,16.32,7.09,15.57,14.64,40.20,30.03,31740000000.0,31740000000.0,18.98,2.19,2.41,11.38,2.41,3600000000.0,11.38,932000000.0,2.09,4.20,2.20,861000000.0,2.00,3220000000.0,0.73,4.23,2250000000.0,0.78,0.27,79.50,7410000.0,1.93,1.71,7190000.0,N/A
